>>>>>>>>>>>>>>>>>>>>>>>>>>>>>>>>>>>>>>>>>>>>>>>>>>>>>>>>>>>>>>>>>>>>>>>>>>>>>>
>>>> Toolkit for HEP Event Generation - ThePEG f0c7c9e4efc0 (default) <<<<<<<<
>>>> Fri Nov 15 16:28:52 2019                                             <<<<
<<<<<<<<<<<<<<<<<<<<<<<<<<<<<<<<<<<<<<<<<<<<<<<<<<<<<<<<<<<<<<<<<<<<<<<<<<<<<<

>> Herwig b7689adb1ad6 (default) / ThePEG f0c7c9e4efc0 (default)

==============================================================================
Statistics for event handler 'EventHandler':
                                       generated    number of    Cross-section
                                          events     attempts             (nb)
==============================================================================
Total (from attempted events): including vetoed events            53.1(1)e-03
==============================================================================
Total (from generated events):            30000        30001      53.1(1)e-03
Events carry unit weights.
==============================================================================
Per matrix element breakdown:
MEbbarg2Y1bbar                                36           36       60(10)e-06
MEcbarg2Y1cbar                                40           40       70(10)e-06
MEsbarg2Y1sbar                                71           71      0.13(1)e-03
MEubarg2Y1ubar                               113          113      0.20(2)e-03
MEdbarg2Y1dbar                               151          151      0.27(2)e-03
MEdubar2Y1W-                                  47           47       80(10)e-06
MEddbar2Y1g                                 3887         3887       6.9(1)e-03
MEddbar2Y1gamma                                8            8        14(5)e-06
MEddbar2Y1Z0                                  27           27        48(9)e-06
MEddbar2Y1Y1                                   1            1         2(2)e-06
MEdg2Y1d                                     651          651      1.15(4)e-03
MEuubar2Y1g                                 7002         7002      12.4(1)e-03
MEuubar2Y1gamma                              106          106      0.19(2)e-03
MEuubar2Y1Z0                                  30           30       50(10)e-06
MEuubar2Y1Y1                                   2            2         4(3)e-06
MEudbar2Y1W+                                 134          134      0.24(2)e-03
MEug2Y1u                                    1534         1534      2.71(7)e-03
MEscbar2Y1W-                                   0            0                0
MEssbar2Y1g                                  245          245      0.43(3)e-03
MEssbar2Y1gamma                                0            0                0
MEssbar2Y1Z0                                   2            2         4(3)e-06
MEssbar2Y1Y1                                   0            0                0
MEsg2Y1s                                      73           73      0.13(2)e-03
MEccbar2Y1g                                  124          124      0.22(2)e-03
MEccbar2Y1gamma                                1            1         2(2)e-06
MEccbar2Y1Z0                                   4            4         7(4)e-06
MEccbar2Y1Y1                                   0            0                0
MEcsbar2Y1W+                                   2            2         4(3)e-06
MEcg2Y1c                                      51           51       90(10)e-06
MEbbbar2Y1g                                   47           47       80(10)e-06
MEbbbar2Y1gamma                                0            0                0
MEbbbar2Y1Z0                                   0            0                0
MEbbbar2Y1H                                    0            0                0
MEbbbar2Y1Y1                                   0            0                0
MEbg2Y1b                                      26           26        46(9)e-06
MEbbbar2Y12XmXm                               62           62      0.11(1)e-03
MEbbbar2Y12ttbar                              10           10        18(6)e-06
MEbbbar2Y12bbbar                              12           12        21(6)e-06
MEbbbar2Y12ssbar                               5            5         9(4)e-06
MEbbbar2Y12ccbar                               4            4         7(4)e-06
MEbbbar2Y12ddbar                              10           10        18(6)e-06
MEbbbar2Y12uubar                               8            8        14(5)e-06
MEssbar2Y12XmXm                              244          244      0.43(3)e-03
MEssbar2Y12ttbar                              32           32       60(10)e-06
MEssbar2Y12bbbar                              31           31       50(10)e-06
MEssbar2Y12ssbar                              28           28        50(9)e-06
MEssbar2Y12ccbar                              20           20        35(8)e-06
MEssbar2Y12ddbar                              27           27        48(9)e-06
MEssbar2Y12uubar                              31           31       50(10)e-06
MEccbar2Y12XmXm                              112          112      0.20(2)e-03
MEccbar2Y12ttbar                              19           19        34(8)e-06
MEccbar2Y12bbbar                              18           18        32(8)e-06
MEccbar2Y12ssbar                              13           13        23(6)e-06
MEccbar2Y12ccbar                              19           19        34(8)e-06
MEccbar2Y12ddbar                              17           17        30(7)e-06
MEccbar2Y12uubar                              14           14        25(7)e-06
MEddbar2Y12XmXm                             2995         2995      5.30(9)e-03
MEddbar2Y12ttbar                             361          361      0.64(3)e-03
MEddbar2Y12bbbar                             411          411      0.73(4)e-03
MEddbar2Y12ssbar                             430          430      0.76(4)e-03
MEddbar2Y12ccbar                             427          427      0.76(4)e-03
MEddbar2Y12ddbar                             414          414      0.73(4)e-03
MEddbar2Y12uubar                             431          431      0.76(4)e-03
MEuubar2Y12XmXm                             5058         5058       8.9(1)e-03
MEuubar2Y12ttbar                             709          709      1.25(5)e-03
MEuubar2Y12bbbar                             719          719      1.27(5)e-03
MEuubar2Y12ssbar                             690          690      1.22(5)e-03
MEuubar2Y12ccbar                             789          790      1.40(5)e-03
MEuubar2Y12ddbar                             723          723      1.28(5)e-03
MEuubar2Y12uubar                             692          692      1.22(5)e-03
==============================================================================
Per parton extractor breakdown:
PPExtractor                                30000        30001      53.1(1)e-03
==============================================================================
Per incoming partons breakdown:
d dbar                                      4715         4715       8.3(1)e-03
d ubar                                        23           23        41(8)e-06
d g                                          343          343      0.61(3)e-03
dbar d                                      4677         4677       8.3(1)e-03
dbar u                                        67           67      0.12(1)e-03
dbar g                                        86           86      0.15(2)e-03
ubar d                                        24           24        42(9)e-06
ubar u                                      8220         8221      14.5(1)e-03
ubar g                                        55           55        97(1)e-06
u dbar                                        67           67      0.12(1)e-03
u ubar                                      8300         8300      14.7(1)e-03
u g                                          785          785      1.39(5)e-03
c cbar                                       163          163      0.29(2)e-03
c sbar                                         1            1         2(2)e-06
c g                                           27           27        48(9)e-06
cbar c                                       178          178      0.31(2)e-03
cbar s                                         0            0                0
cbar g                                        23           23        41(8)e-06
sbar c                                         1            1         2(2)e-06
sbar s                                       332          332      0.59(3)e-03
sbar g                                        34           34       60(10)e-06
s cbar                                         0            0                0
s sbar                                       328          328      0.58(3)e-03
s g                                           35           35       60(10)e-06
b bbar                                        84           84      0.15(2)e-03
b g                                           13           13        23(6)e-06
bbar b                                        74           74      0.13(2)e-03
bbar g                                        20           20        35(8)e-06
g d                                          308          308      0.54(3)e-03
g dbar                                        65           65      0.11(1)e-03
g ubar                                        58           58      0.10(1)e-03
g u                                          749          749      1.33(5)e-03
g c                                           24           24        42(9)e-06
g cbar                                        17           17        30(7)e-06
g sbar                                        37           37       70(10)e-06
g s                                           38           38       70(10)e-06
g b                                           13           13        23(6)e-06
g bbar                                        16           16        28(7)e-06
==============================================================================
Detailed breakdown:
(PPExtractor) bbar b (MEbbbar2Y1g b,bbar->Y1,g) 
                                              20           20        35(8)e-06
(PPExtractor) bbar b (MEbbbar2Y1gamma b,bbar->Y1,gamma) 
                                               0            0                0
(PPExtractor) bbar b (MEbbbar2Y1Z0 b,bbar->Y1,Z0) 
                                               0            0                0
(PPExtractor) bbar b (MEbbbar2Y1H b,bbar->Y1,H) 
                                               0            0                0
(PPExtractor) bbar b (MEbbbar2Y1Y1 b,bbar->Y1,Y1) 
                                               0            0                0
(PPExtractor) bbar b (MEbbbar2Y12XmXm b,bbar->Xm,Xm) 
                                              28           28        50(9)e-06
(PPExtractor) bbar b (MEbbbar2Y12ttbar b,bbar->t,tbar) 
                                               6            6        11(4)e-06
(PPExtractor) bbar b (MEbbbar2Y12bbbar b,bbar->b,bbar) 
                                               7            7        12(5)e-06
(PPExtractor) bbar b (MEbbbar2Y12ssbar b,bbar->s,sbar) 
                                               1            1         2(2)e-06
(PPExtractor) bbar b (MEbbbar2Y12ccbar b,bbar->c,cbar) 
                                               2            2         4(3)e-06
(PPExtractor) bbar b (MEbbbar2Y12ddbar b,bbar->d,dbar) 
                                               6            6        11(4)e-06
(PPExtractor) bbar b (MEbbbar2Y12uubar b,bbar->u,ubar) 
                                               4            4         7(4)e-06
(PPExtractor) bbar g (MEbbarg2Y1bbar bbar,g->Y1,bbar) 
                                              20           20        35(8)e-06
(PPExtractor) cbar s (MEscbar2Y1W- s,cbar->Y1,W-) 
                                               0            0                0
(PPExtractor) cbar c (MEccbar2Y1g c,cbar->Y1,g) 
                                              59           59      0.10(1)e-03
(PPExtractor) cbar c (MEccbar2Y1gamma c,cbar->Y1,gamma) 
                                               1            1         2(2)e-06
(PPExtractor) cbar c (MEccbar2Y1Z0 c,cbar->Y1,Z0) 
                                               3            3         5(3)e-06
(PPExtractor) cbar c (MEccbar2Y1Y1 c,cbar->Y1,Y1) 
                                               0            0                0
(PPExtractor) cbar c (MEccbar2Y12XmXm c,cbar->Xm,Xm) 
                                              63           63      0.11(1)e-03
(PPExtractor) cbar c (MEccbar2Y12ttbar c,cbar->t,tbar) 
                                               7            7        12(5)e-06
(PPExtractor) cbar c (MEccbar2Y12bbbar c,cbar->b,bbar) 
                                              12           12        21(6)e-06
(PPExtractor) cbar c (MEccbar2Y12ssbar c,cbar->s,sbar) 
                                               7            7        12(5)e-06
(PPExtractor) cbar c (MEccbar2Y12ccbar c,cbar->c,cbar) 
                                              12           12        21(6)e-06
(PPExtractor) cbar c (MEccbar2Y12ddbar c,cbar->d,dbar) 
                                               9            9        16(5)e-06
(PPExtractor) cbar c (MEccbar2Y12uubar c,cbar->u,ubar) 
                                               5            5         9(4)e-06
(PPExtractor) cbar g (MEcbarg2Y1cbar cbar,g->Y1,cbar) 
                                              23           23        41(8)e-06
(PPExtractor) sbar s (MEssbar2Y1g s,sbar->Y1,g) 
                                             113          113      0.20(2)e-03
(PPExtractor) sbar s (MEssbar2Y1gamma s,sbar->Y1,gamma) 
                                               0            0                0
(PPExtractor) sbar s (MEssbar2Y1Z0 s,sbar->Y1,Z0) 
                                               0            0                0
(PPExtractor) sbar s (MEssbar2Y1Y1 s,sbar->Y1,Y1) 
                                               0            0                0
(PPExtractor) sbar s (MEssbar2Y12XmXm s,sbar->Xm,Xm) 
                                             123          123      0.22(2)e-03
(PPExtractor) sbar s (MEssbar2Y12ttbar s,sbar->t,tbar) 
                                              15           15        27(7)e-06
(PPExtractor) sbar s (MEssbar2Y12bbbar s,sbar->b,bbar) 
                                              18           18        32(8)e-06
(PPExtractor) sbar s (MEssbar2Y12ssbar s,sbar->s,sbar) 
                                              19           19        34(8)e-06
(PPExtractor) sbar s (MEssbar2Y12ccbar s,sbar->c,cbar) 
                                              13           13        23(6)e-06
(PPExtractor) sbar s (MEssbar2Y12ddbar s,sbar->d,dbar) 
                                              11           11        19(6)e-06
(PPExtractor) sbar s (MEssbar2Y12uubar s,sbar->u,ubar) 
                                              20           20        35(8)e-06
(PPExtractor) sbar c (MEcsbar2Y1W+ c,sbar->Y1,W+) 
                                               1            1         2(2)e-06
(PPExtractor) sbar g (MEsbarg2Y1sbar sbar,g->Y1,sbar) 
                                              34           34       60(10)e-06
(PPExtractor) ubar d (MEdubar2Y1W- d,ubar->Y1,W-) 
                                              24           24        42(9)e-06
(PPExtractor) ubar u (MEuubar2Y1g u,ubar->Y1,g) 
                                            3456         3456       6.1(1)e-03
(PPExtractor) ubar u (MEuubar2Y1gamma u,ubar->Y1,gamma) 
                                              50           50       90(10)e-06
(PPExtractor) ubar u (MEuubar2Y1Z0 u,ubar->Y1,Z0) 
                                              18           18        32(8)e-06
(PPExtractor) ubar u (MEuubar2Y1Y1 u,ubar->Y1,Y1) 
                                               1            1         2(2)e-06
(PPExtractor) ubar u (MEuubar2Y12XmXm u,ubar->Xm,Xm) 
                                            2568         2568      4.54(9)e-03
(PPExtractor) ubar u (MEuubar2Y12ttbar u,ubar->t,tbar) 
                                             346          346      0.61(3)e-03
(PPExtractor) ubar u (MEuubar2Y12bbbar u,ubar->b,bbar) 
                                             333          333      0.59(3)e-03
(PPExtractor) ubar u (MEuubar2Y12ssbar u,ubar->s,sbar) 
                                             340          340      0.60(3)e-03
(PPExtractor) ubar u (MEuubar2Y12ccbar u,ubar->c,cbar) 
                                             392          393      0.69(3)e-03
(PPExtractor) ubar u (MEuubar2Y12ddbar u,ubar->d,dbar) 
                                             377          377      0.67(3)e-03
(PPExtractor) ubar u (MEuubar2Y12uubar u,ubar->u,ubar) 
                                             339          339      0.60(3)e-03
(PPExtractor) ubar g (MEubarg2Y1ubar ubar,g->Y1,ubar) 
                                              55           55        97(1)e-06
(PPExtractor) dbar d (MEddbar2Y1g d,dbar->Y1,g) 
                                            1988         1988      3.52(8)e-03
(PPExtractor) dbar d (MEddbar2Y1gamma d,dbar->Y1,gamma) 
                                               3            3         5(3)e-06
(PPExtractor) dbar d (MEddbar2Y1Z0 d,dbar->Y1,Z0) 
                                              12           12        21(6)e-06
(PPExtractor) dbar d (MEddbar2Y1Y1 d,dbar->Y1,Y1) 
                                               0            0                0
(PPExtractor) dbar d (MEddbar2Y12XmXm d,dbar->Xm,Xm) 
                                            1480         1480      2.62(7)e-03
(PPExtractor) dbar d (MEddbar2Y12ttbar d,dbar->t,tbar) 
                                             172          172      0.30(2)e-03
(PPExtractor) dbar d (MEddbar2Y12bbbar d,dbar->b,bbar) 
                                             211          211      0.37(3)e-03
(PPExtractor) dbar d (MEddbar2Y12ssbar d,dbar->s,sbar) 
                                             217          217      0.38(3)e-03
(PPExtractor) dbar d (MEddbar2Y12ccbar d,dbar->c,cbar) 
                                             208          208      0.37(3)e-03
(PPExtractor) dbar d (MEddbar2Y12ddbar d,dbar->d,dbar) 
                                             189          189      0.33(2)e-03
(PPExtractor) dbar d (MEddbar2Y12uubar d,dbar->u,ubar) 
                                             197          197      0.35(2)e-03
(PPExtractor) dbar u (MEudbar2Y1W+ u,dbar->Y1,W+) 
                                              67           67      0.12(1)e-03
(PPExtractor) dbar g (MEdbarg2Y1dbar dbar,g->Y1,dbar) 
                                              86           86      0.15(2)e-03
(PPExtractor) d ubar (MEdubar2Y1W- d,ubar->Y1,W-) 
                                              23           23        41(8)e-06
(PPExtractor) d dbar (MEddbar2Y1g d,dbar->Y1,g) 
                                            1899         1899      3.36(8)e-03
(PPExtractor) d dbar (MEddbar2Y1gamma d,dbar->Y1,gamma) 
                                               5            5         9(4)e-06
(PPExtractor) d dbar (MEddbar2Y1Z0 d,dbar->Y1,Z0) 
                                              15           15        27(7)e-06
(PPExtractor) d dbar (MEddbar2Y1Y1 d,dbar->Y1,Y1) 
                                               1            1         2(2)e-06
(PPExtractor) d dbar (MEddbar2Y12XmXm d,dbar->Xm,Xm) 
                                            1515         1515      2.68(7)e-03
(PPExtractor) d dbar (MEddbar2Y12ttbar d,dbar->t,tbar) 
                                             189          189      0.33(2)e-03
(PPExtractor) d dbar (MEddbar2Y12bbbar d,dbar->b,bbar) 
                                             200          200      0.35(2)e-03
(PPExtractor) d dbar (MEddbar2Y12ssbar d,dbar->s,sbar) 
                                             213          213      0.38(3)e-03
(PPExtractor) d dbar (MEddbar2Y12ccbar d,dbar->c,cbar) 
                                             219          219      0.39(3)e-03
(PPExtractor) d dbar (MEddbar2Y12ddbar d,dbar->d,dbar) 
                                             225          225      0.40(3)e-03
(PPExtractor) d dbar (MEddbar2Y12uubar d,dbar->u,ubar) 
                                             234          234      0.41(3)e-03
(PPExtractor) d g (MEdg2Y1d d,g->Y1,d) 
                                             343          343      0.61(3)e-03
(PPExtractor) u ubar (MEuubar2Y1g u,ubar->Y1,g) 
                                            3546         3546       6.3(1)e-03
(PPExtractor) u ubar (MEuubar2Y1gamma u,ubar->Y1,gamma) 
                                              56           56        99(1)e-06
(PPExtractor) u ubar (MEuubar2Y1Z0 u,ubar->Y1,Z0) 
                                              12           12        21(6)e-06
(PPExtractor) u ubar (MEuubar2Y1Y1 u,ubar->Y1,Y1) 
                                               1            1         2(2)e-06
(PPExtractor) u ubar (MEuubar2Y12XmXm u,ubar->Xm,Xm) 
                                            2490         2490      4.41(9)e-03
(PPExtractor) u ubar (MEuubar2Y12ttbar u,ubar->t,tbar) 
                                             363          363      0.64(3)e-03
(PPExtractor) u ubar (MEuubar2Y12bbbar u,ubar->b,bbar) 
                                             386          386      0.68(3)e-03
(PPExtractor) u ubar (MEuubar2Y12ssbar u,ubar->s,sbar) 
                                             350          350      0.62(3)e-03
(PPExtractor) u ubar (MEuubar2Y12ccbar u,ubar->c,cbar) 
                                             397          397      0.70(4)e-03
(PPExtractor) u ubar (MEuubar2Y12ddbar u,ubar->d,dbar) 
                                             346          346      0.61(3)e-03
(PPExtractor) u ubar (MEuubar2Y12uubar u,ubar->u,ubar) 
                                             353          353      0.62(3)e-03
(PPExtractor) u dbar (MEudbar2Y1W+ u,dbar->Y1,W+) 
                                              67           67      0.12(1)e-03
(PPExtractor) u g (MEug2Y1u u,g->Y1,u) 
                                             785          785      1.39(5)e-03
(PPExtractor) s cbar (MEscbar2Y1W- s,cbar->Y1,W-) 
                                               0            0                0
(PPExtractor) s sbar (MEssbar2Y1g s,sbar->Y1,g) 
                                             132          132      0.23(2)e-03
(PPExtractor) s sbar (MEssbar2Y1gamma s,sbar->Y1,gamma) 
                                               0            0                0
(PPExtractor) s sbar (MEssbar2Y1Z0 s,sbar->Y1,Z0) 
                                               2            2         4(3)e-06
(PPExtractor) s sbar (MEssbar2Y1Y1 s,sbar->Y1,Y1) 
                                               0            0                0
(PPExtractor) s sbar (MEssbar2Y12XmXm s,sbar->Xm,Xm) 
                                             121          121      0.21(2)e-03
(PPExtractor) s sbar (MEssbar2Y12ttbar s,sbar->t,tbar) 
                                              17           17        30(7)e-06
(PPExtractor) s sbar (MEssbar2Y12bbbar s,sbar->b,bbar) 
                                              13           13        23(6)e-06
(PPExtractor) s sbar (MEssbar2Y12ssbar s,sbar->s,sbar) 
                                               9            9        16(5)e-06
(PPExtractor) s sbar (MEssbar2Y12ccbar s,sbar->c,cbar) 
                                               7            7        12(5)e-06
(PPExtractor) s sbar (MEssbar2Y12ddbar s,sbar->d,dbar) 
                                              16           16        28(7)e-06
(PPExtractor) s sbar (MEssbar2Y12uubar s,sbar->u,ubar) 
                                              11           11        19(6)e-06
(PPExtractor) s g (MEsg2Y1s s,g->Y1,s) 
                                              35           35       60(10)e-06
(PPExtractor) c cbar (MEccbar2Y1g c,cbar->Y1,g) 
                                              65           65      0.11(1)e-03
(PPExtractor) c cbar (MEccbar2Y1gamma c,cbar->Y1,gamma) 
                                               0            0                0
(PPExtractor) c cbar (MEccbar2Y1Z0 c,cbar->Y1,Z0) 
                                               1            1         2(2)e-06
(PPExtractor) c cbar (MEccbar2Y1Y1 c,cbar->Y1,Y1) 
                                               0            0                0
(PPExtractor) c cbar (MEccbar2Y12XmXm c,cbar->Xm,Xm) 
                                              49           49       90(10)e-06
(PPExtractor) c cbar (MEccbar2Y12ttbar c,cbar->t,tbar) 
                                              12           12        21(6)e-06
(PPExtractor) c cbar (MEccbar2Y12bbbar c,cbar->b,bbar) 
                                               6            6        11(4)e-06
(PPExtractor) c cbar (MEccbar2Y12ssbar c,cbar->s,sbar) 
                                               6            6        11(4)e-06
(PPExtractor) c cbar (MEccbar2Y12ccbar c,cbar->c,cbar) 
                                               7            7        12(5)e-06
(PPExtractor) c cbar (MEccbar2Y12ddbar c,cbar->d,dbar) 
                                               8            8        14(5)e-06
(PPExtractor) c cbar (MEccbar2Y12uubar c,cbar->u,ubar) 
                                               9            9        16(5)e-06
(PPExtractor) c sbar (MEcsbar2Y1W+ c,sbar->Y1,W+) 
                                               1            1         2(2)e-06
(PPExtractor) c g (MEcg2Y1c c,g->Y1,c) 
                                              27           27        48(9)e-06
(PPExtractor) b bbar (MEbbbar2Y1g b,bbar->Y1,g) 
                                              27           27        48(9)e-06
(PPExtractor) b bbar (MEbbbar2Y1gamma b,bbar->Y1,gamma) 
                                               0            0                0
(PPExtractor) b bbar (MEbbbar2Y1Z0 b,bbar->Y1,Z0) 
                                               0            0                0
(PPExtractor) b bbar (MEbbbar2Y1H b,bbar->Y1,H) 
                                               0            0                0
(PPExtractor) b bbar (MEbbbar2Y1Y1 b,bbar->Y1,Y1) 
                                               0            0                0
(PPExtractor) b bbar (MEbbbar2Y12XmXm b,bbar->Xm,Xm) 
                                              34           34       60(10)e-06
(PPExtractor) b bbar (MEbbbar2Y12ttbar b,bbar->t,tbar) 
                                               4            4         7(4)e-06
(PPExtractor) b bbar (MEbbbar2Y12bbbar b,bbar->b,bbar) 
                                               5            5         9(4)e-06
(PPExtractor) b bbar (MEbbbar2Y12ssbar b,bbar->s,sbar) 
                                               4            4         7(4)e-06
(PPExtractor) b bbar (MEbbbar2Y12ccbar b,bbar->c,cbar) 
                                               2            2         4(3)e-06
(PPExtractor) b bbar (MEbbbar2Y12ddbar b,bbar->d,dbar) 
                                               4            4         7(4)e-06
(PPExtractor) b bbar (MEbbbar2Y12uubar b,bbar->u,ubar) 
                                               4            4         7(4)e-06
(PPExtractor) b g (MEbg2Y1b b,g->Y1,b) 
                                              13           13        23(6)e-06
(PPExtractor) g bbar (MEbbarg2Y1bbar bbar,g->Y1,bbar) 
                                              16           16        28(7)e-06
(PPExtractor) g cbar (MEcbarg2Y1cbar cbar,g->Y1,cbar) 
                                              17           17        30(7)e-06
(PPExtractor) g sbar (MEsbarg2Y1sbar sbar,g->Y1,sbar) 
                                              37           37       70(10)e-06
(PPExtractor) g ubar (MEubarg2Y1ubar ubar,g->Y1,ubar) 
                                              58           58      0.10(1)e-03
(PPExtractor) g dbar (MEdbarg2Y1dbar dbar,g->Y1,dbar) 
                                              65           65      0.11(1)e-03
(PPExtractor) g d (MEdg2Y1d d,g->Y1,d) 
                                             308          308      0.54(3)e-03
(PPExtractor) g u (MEug2Y1u u,g->Y1,u) 
                                             749          749      1.33(5)e-03
(PPExtractor) g s (MEsg2Y1s s,g->Y1,s) 
                                              38           38       70(10)e-06
(PPExtractor) g c (MEcg2Y1c c,g->Y1,c) 
                                              24           24        42(9)e-06
(PPExtractor) g b (MEbg2Y1b b,g->Y1,b) 
                                              13           13        23(6)e-06
==============================================================================
