>>>>>>>>>>>>>>>>>>>>>>>>>>>>>>>>>>>>>>>>>>>>>>>>>>>>>>>>>>>>>>>>>>>>>>>>>>>>>>
>>>> Toolkit for HEP Event Generation - ThePEG f0c7c9e4efc0 (default) <<<<<<<<
>>>> Fri Nov 15 16:30:48 2019                                             <<<<
<<<<<<<<<<<<<<<<<<<<<<<<<<<<<<<<<<<<<<<<<<<<<<<<<<<<<<<<<<<<<<<<<<<<<<<<<<<<<<

>> Herwig b7689adb1ad6 (default) / ThePEG f0c7c9e4efc0 (default)

==============================================================================
Statistics for event handler 'EventHandler':
                                       generated    number of    Cross-section
                                          events     attempts             (nb)
==============================================================================
Total (from attempted events): including vetoed events          0.2936(8)e-03
==============================================================================
Total (from generated events):            30000        30002    0.2936(8)e-03
Events carry unit weights.
==============================================================================
Per matrix element breakdown:
MEbbarg2Y1bbar                                 3            3       30(20)e-09
MEcbarg2Y1cbar                                 6            6       60(20)e-09
MEsbarg2Y1sbar                                 5            5       50(20)e-09
MEubarg2Y1ubar                                11           11      0.11(3)e-06
MEdbarg2Y1dbar                                18           18      0.18(4)e-06
MEdubar2Y1W-                                  22           22      0.22(5)e-06
MEddbar2Y1g                                 2632         2632      25.8(5)e-06
MEddbar2Y1gamma                                5            5       50(20)e-09
MEddbar2Y1Z0                                  12           12      0.12(3)e-06
MEddbar2Y1Y1                                   0            0                0
MEdg2Y1d                                     196          196       1.9(1)e-06
MEuubar2Y1g                                 8203         8205      80.3(8)e-06
MEuubar2Y1gamma                              132          132       1.3(1)e-06
MEuubar2Y1Z0                                  30           30      0.29(5)e-06
MEuubar2Y1Y1                                   0            0                0
MEudbar2Y1W+                                 109          109       1.1(1)e-06
MEug2Y1u                                     780          780       7.6(3)e-06
MEscbar2Y1W-                                   0            0                0
MEssbar2Y1g                                   41           41      0.40(6)e-06
MEssbar2Y1gamma                                0            0                0
MEssbar2Y1Z0                                   0            0                0
MEssbar2Y1Y1                                   0            0                0
MEsg2Y1s                                       8            8       80(30)e-09
MEccbar2Y1g                                   21           21      0.21(4)e-06
MEccbar2Y1gamma                                0            0                0
MEccbar2Y1Z0                                   0            0                0
MEccbar2Y1Y1                                   0            0                0
MEcsbar2Y1W+                                   1            1       10(10)e-09
MEcg2Y1c                                       6            6       60(20)e-09
MEbbbar2Y1g                                    7            7       70(30)e-09
MEbbbar2Y1gamma                                0            0                0
MEbbbar2Y1Z0                                   0            0                0
MEbbbar2Y1H                                    0            0                0
MEbbbar2Y1Y1                                   0            0                0
MEbg2Y1b                                       1            1       10(10)e-09
MEbbbar2Y12XmXm                                2            2       20(10)e-09
MEbbbar2Y12ttbar                               4            4       40(20)e-09
MEbbbar2Y12bbbar                              10           10        98(3)e-09
MEbbbar2Y12ssbar                               6            6       60(20)e-09
MEbbbar2Y12ccbar                              10           10        98(3)e-09
MEbbbar2Y12ddbar                              10           10        98(3)e-09
MEbbbar2Y12uubar                               8            8       80(30)e-09
MEssbar2Y12XmXm                                2            2       20(10)e-09
MEssbar2Y12ttbar                              21           21      0.21(4)e-06
MEssbar2Y12bbbar                              36           36      0.35(6)e-06
MEssbar2Y12ssbar                              28           28      0.27(5)e-06
MEssbar2Y12ccbar                              24           24      0.23(5)e-06
MEssbar2Y12ddbar                              23           23      0.23(5)e-06
MEssbar2Y12uubar                              25           25      0.24(5)e-06
MEccbar2Y12XmXm                                0            0                0
MEccbar2Y12ttbar                              18           18      0.18(4)e-06
MEccbar2Y12bbbar                              15           15      0.15(4)e-06
MEccbar2Y12ssbar                              15           15      0.15(4)e-06
MEccbar2Y12ccbar                              14           14      0.14(4)e-06
MEccbar2Y12ddbar                              23           23      0.23(5)e-06
MEccbar2Y12uubar                              18           18      0.18(4)e-06
MEddbar2Y12XmXm                              122          122       1.2(1)e-06
MEddbar2Y12ttbar                             708          708       6.9(3)e-06
MEddbar2Y12bbbar                             779          779       7.6(3)e-06
MEddbar2Y12ssbar                             804          804       7.9(3)e-06
MEddbar2Y12ccbar                             816          816       8.0(3)e-06
MEddbar2Y12ddbar                             780          780       7.6(3)e-06
MEddbar2Y12uubar                             785          785       7.7(3)e-06
MEuubar2Y12XmXm                              431          431       4.2(2)e-06
MEuubar2Y12ttbar                            1857         1857      18.2(4)e-06
MEuubar2Y12bbbar                            2060         2060      20.2(4)e-06
MEuubar2Y12ssbar                            2068         2068      20.2(4)e-06
MEuubar2Y12ccbar                            2113         2113      20.7(4)e-06
MEuubar2Y12ddbar                            2006         2006      19.6(4)e-06
MEuubar2Y12uubar                            2110         2110      20.6(4)e-06
==============================================================================
Per parton extractor breakdown:
PPExtractor                                30000        30002    0.2936(8)e-03
==============================================================================
Per incoming partons breakdown:
d dbar                                      3771         3771      36.9(6)e-06
d ubar                                         6            6       60(20)e-09
d g                                           84           84      0.82(9)e-06
dbar d                                      3672         3672      35.9(6)e-06
dbar u                                        62           62      0.61(8)e-06
dbar g                                         8            8       80(30)e-09
ubar d                                        16           16      0.16(4)e-06
ubar u                                     10616        10617    0.1039(9)e-03
ubar g                                         6            6       60(20)e-09
u dbar                                        47           47      0.46(7)e-06
u ubar                                     10394        10395    0.1017(9)e-03
u g                                          357          357       3.5(2)e-06
c cbar                                        62           62      0.61(8)e-06
c sbar                                         0            0                0
c g                                            4            4       40(20)e-09
cbar c                                        62           62      0.61(8)e-06
cbar s                                         0            0                0
cbar g                                         4            4       40(20)e-09
sbar c                                         1            1       10(10)e-09
sbar s                                       106          106       1.0(1)e-06
sbar g                                         3            3       30(20)e-09
s cbar                                         0            0                0
s sbar                                        94           94      0.92(9)e-06
s g                                            3            3       30(20)e-09
b bbar                                        25           25      0.24(5)e-06
b g                                            0            0                0
bbar b                                        32           32      0.31(6)e-06
bbar g                                         0            0                0
g d                                          112          112       1.1(1)e-06
g dbar                                        10           10        98(3)e-09
g ubar                                         5            5       50(20)e-09
g u                                          423          423       4.1(2)e-06
g c                                            2            2       20(10)e-09
g cbar                                         2            2       20(10)e-09
g sbar                                         2            2       20(10)e-09
g s                                            5            5       50(20)e-09
g b                                            1            1       10(10)e-09
g bbar                                         3            3       30(20)e-09
==============================================================================
Detailed breakdown:
(PPExtractor) bbar b (MEbbbar2Y1g b,bbar->Y1,g) 
                                               5            5       50(20)e-09
(PPExtractor) bbar b (MEbbbar2Y1gamma b,bbar->Y1,gamma) 
                                               0            0                0
(PPExtractor) bbar b (MEbbbar2Y1Z0 b,bbar->Y1,Z0) 
                                               0            0                0
(PPExtractor) bbar b (MEbbbar2Y1H b,bbar->Y1,H) 
                                               0            0                0
(PPExtractor) bbar b (MEbbbar2Y1Y1 b,bbar->Y1,Y1) 
                                               0            0                0
(PPExtractor) bbar b (MEbbbar2Y12XmXm b,bbar->Xm,Xm) 
                                               1            1       10(10)e-09
(PPExtractor) bbar b (MEbbbar2Y12ttbar b,bbar->t,tbar) 
                                               2            2       20(10)e-09
(PPExtractor) bbar b (MEbbbar2Y12bbbar b,bbar->b,bbar) 
                                               5            5       50(20)e-09
(PPExtractor) bbar b (MEbbbar2Y12ssbar b,bbar->s,sbar) 
                                               2            2       20(10)e-09
(PPExtractor) bbar b (MEbbbar2Y12ccbar b,bbar->c,cbar) 
                                               8            8       80(30)e-09
(PPExtractor) bbar b (MEbbbar2Y12ddbar b,bbar->d,dbar) 
                                               3            3       30(20)e-09
(PPExtractor) bbar b (MEbbbar2Y12uubar b,bbar->u,ubar) 
                                               6            6       60(20)e-09
(PPExtractor) bbar g (MEbbarg2Y1bbar bbar,g->Y1,bbar) 
                                               0            0                0
(PPExtractor) cbar s (MEscbar2Y1W- s,cbar->Y1,W-) 
                                               0            0                0
(PPExtractor) cbar c (MEccbar2Y1g c,cbar->Y1,g) 
                                              12           12      0.12(3)e-06
(PPExtractor) cbar c (MEccbar2Y1gamma c,cbar->Y1,gamma) 
                                               0            0                0
(PPExtractor) cbar c (MEccbar2Y1Z0 c,cbar->Y1,Z0) 
                                               0            0                0
(PPExtractor) cbar c (MEccbar2Y1Y1 c,cbar->Y1,Y1) 
                                               0            0                0
(PPExtractor) cbar c (MEccbar2Y12XmXm c,cbar->Xm,Xm) 
                                               0            0                0
(PPExtractor) cbar c (MEccbar2Y12ttbar c,cbar->t,tbar) 
                                               9            9       90(30)e-09
(PPExtractor) cbar c (MEccbar2Y12bbbar c,cbar->b,bbar) 
                                               7            7       70(30)e-09
(PPExtractor) cbar c (MEccbar2Y12ssbar c,cbar->s,sbar) 
                                               5            5       50(20)e-09
(PPExtractor) cbar c (MEccbar2Y12ccbar c,cbar->c,cbar) 
                                               7            7       70(30)e-09
(PPExtractor) cbar c (MEccbar2Y12ddbar c,cbar->d,dbar) 
                                              12           12      0.12(3)e-06
(PPExtractor) cbar c (MEccbar2Y12uubar c,cbar->u,ubar) 
                                              10           10        98(3)e-09
(PPExtractor) cbar g (MEcbarg2Y1cbar cbar,g->Y1,cbar) 
                                               4            4       40(20)e-09
(PPExtractor) sbar s (MEssbar2Y1g s,sbar->Y1,g) 
                                              25           25      0.24(5)e-06
(PPExtractor) sbar s (MEssbar2Y1gamma s,sbar->Y1,gamma) 
                                               0            0                0
(PPExtractor) sbar s (MEssbar2Y1Z0 s,sbar->Y1,Z0) 
                                               0            0                0
(PPExtractor) sbar s (MEssbar2Y1Y1 s,sbar->Y1,Y1) 
                                               0            0                0
(PPExtractor) sbar s (MEssbar2Y12XmXm s,sbar->Xm,Xm) 
                                               1            1       10(10)e-09
(PPExtractor) sbar s (MEssbar2Y12ttbar s,sbar->t,tbar) 
                                               9            9       90(30)e-09
(PPExtractor) sbar s (MEssbar2Y12bbbar s,sbar->b,bbar) 
                                              20           20      0.20(4)e-06
(PPExtractor) sbar s (MEssbar2Y12ssbar s,sbar->s,sbar) 
                                              16           16      0.16(4)e-06
(PPExtractor) sbar s (MEssbar2Y12ccbar s,sbar->c,cbar) 
                                              13           13      0.13(4)e-06
(PPExtractor) sbar s (MEssbar2Y12ddbar s,sbar->d,dbar) 
                                               8            8       80(30)e-09
(PPExtractor) sbar s (MEssbar2Y12uubar s,sbar->u,ubar) 
                                              14           14      0.14(4)e-06
(PPExtractor) sbar c (MEcsbar2Y1W+ c,sbar->Y1,W+) 
                                               1            1       10(10)e-09
(PPExtractor) sbar g (MEsbarg2Y1sbar sbar,g->Y1,sbar) 
                                               3            3       30(20)e-09
(PPExtractor) ubar d (MEdubar2Y1W- d,ubar->Y1,W-) 
                                              16           16      0.16(4)e-06
(PPExtractor) ubar u (MEuubar2Y1g u,ubar->Y1,g) 
                                            4129         4130      40.4(6)e-06
(PPExtractor) ubar u (MEuubar2Y1gamma u,ubar->Y1,gamma) 
                                              63           63      0.62(8)e-06
(PPExtractor) ubar u (MEuubar2Y1Z0 u,ubar->Y1,Z0) 
                                              12           12      0.12(3)e-06
(PPExtractor) ubar u (MEuubar2Y1Y1 u,ubar->Y1,Y1) 
                                               0            0                0
(PPExtractor) ubar u (MEuubar2Y12XmXm u,ubar->Xm,Xm) 
                                             214          214       2.1(1)e-06
(PPExtractor) ubar u (MEuubar2Y12ttbar u,ubar->t,tbar) 
                                             939          939       9.2(3)e-06
(PPExtractor) ubar u (MEuubar2Y12bbbar u,ubar->b,bbar) 
                                            1014         1014       9.9(3)e-06
(PPExtractor) ubar u (MEuubar2Y12ssbar u,ubar->s,sbar) 
                                            1064         1064      10.4(3)e-06
(PPExtractor) ubar u (MEuubar2Y12ccbar u,ubar->c,cbar) 
                                            1106         1106      10.8(3)e-06
(PPExtractor) ubar u (MEuubar2Y12ddbar u,ubar->d,dbar) 
                                             998          998       9.8(3)e-06
(PPExtractor) ubar u (MEuubar2Y12uubar u,ubar->u,ubar) 
                                            1077         1077      10.5(3)e-06
(PPExtractor) ubar g (MEubarg2Y1ubar ubar,g->Y1,ubar) 
                                               6            6       60(20)e-09
(PPExtractor) dbar d (MEddbar2Y1g d,dbar->Y1,g) 
                                            1304         1304      12.8(3)e-06
(PPExtractor) dbar d (MEddbar2Y1gamma d,dbar->Y1,gamma) 
                                               3            3       30(20)e-09
(PPExtractor) dbar d (MEddbar2Y1Z0 d,dbar->Y1,Z0) 
                                               4            4       40(20)e-09
(PPExtractor) dbar d (MEddbar2Y1Y1 d,dbar->Y1,Y1) 
                                               0            0                0
(PPExtractor) dbar d (MEddbar2Y12XmXm d,dbar->Xm,Xm) 
                                              53           53      0.52(7)e-06
(PPExtractor) dbar d (MEddbar2Y12ttbar d,dbar->t,tbar) 
                                             360          360       3.5(2)e-06
(PPExtractor) dbar d (MEddbar2Y12bbbar d,dbar->b,bbar) 
                                             391          391       3.8(2)e-06
(PPExtractor) dbar d (MEddbar2Y12ssbar d,dbar->s,sbar) 
                                             377          377       3.7(2)e-06
(PPExtractor) dbar d (MEddbar2Y12ccbar d,dbar->c,cbar) 
                                             409          409       4.0(2)e-06
(PPExtractor) dbar d (MEddbar2Y12ddbar d,dbar->d,dbar) 
                                             404          404       4.0(2)e-06
(PPExtractor) dbar d (MEddbar2Y12uubar d,dbar->u,ubar) 
                                             367          367       3.6(2)e-06
(PPExtractor) dbar u (MEudbar2Y1W+ u,dbar->Y1,W+) 
                                              62           62      0.61(8)e-06
(PPExtractor) dbar g (MEdbarg2Y1dbar dbar,g->Y1,dbar) 
                                               8            8       80(30)e-09
(PPExtractor) d ubar (MEdubar2Y1W- d,ubar->Y1,W-) 
                                               6            6       60(20)e-09
(PPExtractor) d dbar (MEddbar2Y1g d,dbar->Y1,g) 
                                            1328         1328      13.0(4)e-06
(PPExtractor) d dbar (MEddbar2Y1gamma d,dbar->Y1,gamma) 
                                               2            2       20(10)e-09
(PPExtractor) d dbar (MEddbar2Y1Z0 d,dbar->Y1,Z0) 
                                               8            8       80(30)e-09
(PPExtractor) d dbar (MEddbar2Y1Y1 d,dbar->Y1,Y1) 
                                               0            0                0
(PPExtractor) d dbar (MEddbar2Y12XmXm d,dbar->Xm,Xm) 
                                              69           69      0.68(8)e-06
(PPExtractor) d dbar (MEddbar2Y12ttbar d,dbar->t,tbar) 
                                             348          348       3.4(2)e-06
(PPExtractor) d dbar (MEddbar2Y12bbbar d,dbar->b,bbar) 
                                             388          388       3.8(2)e-06
(PPExtractor) d dbar (MEddbar2Y12ssbar d,dbar->s,sbar) 
                                             427          427       4.2(2)e-06
(PPExtractor) d dbar (MEddbar2Y12ccbar d,dbar->c,cbar) 
                                             407          407       4.0(2)e-06
(PPExtractor) d dbar (MEddbar2Y12ddbar d,dbar->d,dbar) 
                                             376          376       3.7(2)e-06
(PPExtractor) d dbar (MEddbar2Y12uubar d,dbar->u,ubar) 
                                             418          418       4.1(2)e-06
(PPExtractor) d g (MEdg2Y1d d,g->Y1,d) 
                                              84           84      0.82(9)e-06
(PPExtractor) u ubar (MEuubar2Y1g u,ubar->Y1,g) 
                                            4074         4075      39.9(6)e-06
(PPExtractor) u ubar (MEuubar2Y1gamma u,ubar->Y1,gamma) 
                                              69           69      0.68(8)e-06
(PPExtractor) u ubar (MEuubar2Y1Z0 u,ubar->Y1,Z0) 
                                              18           18      0.18(4)e-06
(PPExtractor) u ubar (MEuubar2Y1Y1 u,ubar->Y1,Y1) 
                                               0            0                0
(PPExtractor) u ubar (MEuubar2Y12XmXm u,ubar->Xm,Xm) 
                                             217          217       2.1(1)e-06
(PPExtractor) u ubar (MEuubar2Y12ttbar u,ubar->t,tbar) 
                                             918          918       9.0(3)e-06
(PPExtractor) u ubar (MEuubar2Y12bbbar u,ubar->b,bbar) 
                                            1046         1046      10.2(3)e-06
(PPExtractor) u ubar (MEuubar2Y12ssbar u,ubar->s,sbar) 
                                            1004         1004       9.8(3)e-06
(PPExtractor) u ubar (MEuubar2Y12ccbar u,ubar->c,cbar) 
                                            1007         1007       9.9(3)e-06
(PPExtractor) u ubar (MEuubar2Y12ddbar u,ubar->d,dbar) 
                                            1008         1008       9.9(3)e-06
(PPExtractor) u ubar (MEuubar2Y12uubar u,ubar->u,ubar) 
                                            1033         1033      10.1(3)e-06
(PPExtractor) u dbar (MEudbar2Y1W+ u,dbar->Y1,W+) 
                                              47           47      0.46(7)e-06
(PPExtractor) u g (MEug2Y1u u,g->Y1,u) 
                                             357          357       3.5(2)e-06
(PPExtractor) s cbar (MEscbar2Y1W- s,cbar->Y1,W-) 
                                               0            0                0
(PPExtractor) s sbar (MEssbar2Y1g s,sbar->Y1,g) 
                                              16           16      0.16(4)e-06
(PPExtractor) s sbar (MEssbar2Y1gamma s,sbar->Y1,gamma) 
                                               0            0                0
(PPExtractor) s sbar (MEssbar2Y1Z0 s,sbar->Y1,Z0) 
                                               0            0                0
(PPExtractor) s sbar (MEssbar2Y1Y1 s,sbar->Y1,Y1) 
                                               0            0                0
(PPExtractor) s sbar (MEssbar2Y12XmXm s,sbar->Xm,Xm) 
                                               1            1       10(10)e-09
(PPExtractor) s sbar (MEssbar2Y12ttbar s,sbar->t,tbar) 
                                              12           12      0.12(3)e-06
(PPExtractor) s sbar (MEssbar2Y12bbbar s,sbar->b,bbar) 
                                              16           16      0.16(4)e-06
(PPExtractor) s sbar (MEssbar2Y12ssbar s,sbar->s,sbar) 
                                              12           12      0.12(3)e-06
(PPExtractor) s sbar (MEssbar2Y12ccbar s,sbar->c,cbar) 
                                              11           11      0.11(3)e-06
(PPExtractor) s sbar (MEssbar2Y12ddbar s,sbar->d,dbar) 
                                              15           15      0.15(4)e-06
(PPExtractor) s sbar (MEssbar2Y12uubar s,sbar->u,ubar) 
                                              11           11      0.11(3)e-06
(PPExtractor) s g (MEsg2Y1s s,g->Y1,s) 
                                               3            3       30(20)e-09
(PPExtractor) c cbar (MEccbar2Y1g c,cbar->Y1,g) 
                                               9            9       90(30)e-09
(PPExtractor) c cbar (MEccbar2Y1gamma c,cbar->Y1,gamma) 
                                               0            0                0
(PPExtractor) c cbar (MEccbar2Y1Z0 c,cbar->Y1,Z0) 
                                               0            0                0
(PPExtractor) c cbar (MEccbar2Y1Y1 c,cbar->Y1,Y1) 
                                               0            0                0
(PPExtractor) c cbar (MEccbar2Y12XmXm c,cbar->Xm,Xm) 
                                               0            0                0
(PPExtractor) c cbar (MEccbar2Y12ttbar c,cbar->t,tbar) 
                                               9            9       90(30)e-09
(PPExtractor) c cbar (MEccbar2Y12bbbar c,cbar->b,bbar) 
                                               8            8       80(30)e-09
(PPExtractor) c cbar (MEccbar2Y12ssbar c,cbar->s,sbar) 
                                              10           10        98(3)e-09
(PPExtractor) c cbar (MEccbar2Y12ccbar c,cbar->c,cbar) 
                                               7            7       70(30)e-09
(PPExtractor) c cbar (MEccbar2Y12ddbar c,cbar->d,dbar) 
                                              11           11      0.11(3)e-06
(PPExtractor) c cbar (MEccbar2Y12uubar c,cbar->u,ubar) 
                                               8            8       80(30)e-09
(PPExtractor) c sbar (MEcsbar2Y1W+ c,sbar->Y1,W+) 
                                               0            0                0
(PPExtractor) c g (MEcg2Y1c c,g->Y1,c) 
                                               4            4       40(20)e-09
(PPExtractor) b bbar (MEbbbar2Y1g b,bbar->Y1,g) 
                                               2            2       20(10)e-09
(PPExtractor) b bbar (MEbbbar2Y1gamma b,bbar->Y1,gamma) 
                                               0            0                0
(PPExtractor) b bbar (MEbbbar2Y1Z0 b,bbar->Y1,Z0) 
                                               0            0                0
(PPExtractor) b bbar (MEbbbar2Y1H b,bbar->Y1,H) 
                                               0            0                0
(PPExtractor) b bbar (MEbbbar2Y1Y1 b,bbar->Y1,Y1) 
                                               0            0                0
(PPExtractor) b bbar (MEbbbar2Y12XmXm b,bbar->Xm,Xm) 
                                               1            1       10(10)e-09
(PPExtractor) b bbar (MEbbbar2Y12ttbar b,bbar->t,tbar) 
                                               2            2       20(10)e-09
(PPExtractor) b bbar (MEbbbar2Y12bbbar b,bbar->b,bbar) 
                                               5            5       50(20)e-09
(PPExtractor) b bbar (MEbbbar2Y12ssbar b,bbar->s,sbar) 
                                               4            4       40(20)e-09
(PPExtractor) b bbar (MEbbbar2Y12ccbar b,bbar->c,cbar) 
                                               2            2       20(10)e-09
(PPExtractor) b bbar (MEbbbar2Y12ddbar b,bbar->d,dbar) 
                                               7            7       70(30)e-09
(PPExtractor) b bbar (MEbbbar2Y12uubar b,bbar->u,ubar) 
                                               2            2       20(10)e-09
(PPExtractor) b g (MEbg2Y1b b,g->Y1,b) 
                                               0            0                0
(PPExtractor) g bbar (MEbbarg2Y1bbar bbar,g->Y1,bbar) 
                                               3            3       30(20)e-09
(PPExtractor) g cbar (MEcbarg2Y1cbar cbar,g->Y1,cbar) 
                                               2            2       20(10)e-09
(PPExtractor) g sbar (MEsbarg2Y1sbar sbar,g->Y1,sbar) 
                                               2            2       20(10)e-09
(PPExtractor) g ubar (MEubarg2Y1ubar ubar,g->Y1,ubar) 
                                               5            5       50(20)e-09
(PPExtractor) g dbar (MEdbarg2Y1dbar dbar,g->Y1,dbar) 
                                              10           10        98(3)e-09
(PPExtractor) g d (MEdg2Y1d d,g->Y1,d) 
                                             112          112       1.1(1)e-06
(PPExtractor) g u (MEug2Y1u u,g->Y1,u) 
                                             423          423       4.1(2)e-06
(PPExtractor) g s (MEsg2Y1s s,g->Y1,s) 
                                               5            5       50(20)e-09
(PPExtractor) g c (MEcg2Y1c c,g->Y1,c) 
                                               2            2       20(10)e-09
(PPExtractor) g b (MEbg2Y1b b,g->Y1,b) 
                                               1            1       10(10)e-09
==============================================================================
