>>>>>>>>>>>>>>>>>>>>>>>>>>>>>>>>>>>>>>>>>>>>>>>>>>>>>>>>>>>>>>>>>>>>>>>>>>>>>>
>>>> Toolkit for HEP Event Generation - ThePEG f0c7c9e4efc0 (default) <<<<<<<<
>>>> Fri Nov 15 16:28:53 2019                                             <<<<
<<<<<<<<<<<<<<<<<<<<<<<<<<<<<<<<<<<<<<<<<<<<<<<<<<<<<<<<<<<<<<<<<<<<<<<<<<<<<<

>> Herwig b7689adb1ad6 (default) / ThePEG f0c7c9e4efc0 (default)

==============================================================================
Statistics for event handler 'EventHandler':
                                       generated    number of    Cross-section
                                          events     attempts             (nb)
==============================================================================
Total (from attempted events): including vetoed events           11.40(3)e-03
==============================================================================
Total (from generated events):            30000        30001     11.40(3)e-03
Events carry unit weights.
==============================================================================
Per matrix element breakdown:
MEbbarg2Y1bbar                                10           10         4(1)e-06
MEcbarg2Y1cbar                                21           21         8(2)e-06
MEsbarg2Y1sbar                                21           21         8(2)e-06
MEubarg2Y1ubar                                53           53        20(3)e-06
MEdbarg2Y1dbar                                59           59        22(3)e-06
MEdubar2Y1W-                                  33           33        13(2)e-06
MEddbar2Y1g                                 3480         3480      1.32(2)e-03
MEddbar2Y1gamma                               19           19         7(2)e-06
MEddbar2Y1Z0                                  14           14         5(1)e-06
MEddbar2Y1Y1                                   0            0                0
MEdg2Y1d                                     400          400     0.152(8)e-03
MEuubar2Y1g                                 7141         7141      2.71(3)e-03
MEuubar2Y1gamma                              116          116        44(4)e-06
MEuubar2Y1Z0                                  25           25       9.5(2)e-06
MEuubar2Y1Y1                                   0            0                0
MEudbar2Y1W+                                 127          127        48(4)e-06
MEug2Y1u                                    1160         1160      0.44(1)e-03
MEscbar2Y1W-                                   0            0                0
MEssbar2Y1g                                   96           96        36(4)e-06
MEssbar2Y1gamma                                0            0                0
MEssbar2Y1Z0                                   0            0                0
MEssbar2Y1Y1                                   0            0                0
MEsg2Y1s                                      37           37        14(2)e-06
MEccbar2Y1g                                   55           55        21(3)e-06
MEccbar2Y1gamma                                0            0                0
MEccbar2Y1Z0                                   0            0                0
MEccbar2Y1Y1                                   0            0                0
MEcsbar2Y1W+                                   0            0                0
MEcg2Y1c                                       7            7         3(1)e-06
MEbbbar2Y1g                                   21           21         8(2)e-06
MEbbbar2Y1gamma                                0            0                0
MEbbbar2Y1Z0                                   0            0                0
MEbbbar2Y1H                                    0            0                0
MEbbbar2Y1Y1                                   0            0                0
MEbg2Y1b                                      15           15         6(1)e-06
MEbbbar2Y12XmXm                                0            0                0
MEbbbar2Y12ttbar                               6            6       2.3(9)e-06
MEbbbar2Y12bbbar                               8            8         3(1)e-06
MEbbbar2Y12ssbar                              11           11         4(1)e-06
MEbbbar2Y12ccbar                               6            6       2.3(9)e-06
MEbbbar2Y12ddbar                               9            9         3(1)e-06
MEbbbar2Y12uubar                              11           11         4(1)e-06
MEssbar2Y12XmXm                                0            0                0
MEssbar2Y12ttbar                              40           40        15(2)e-06
MEssbar2Y12bbbar                              35           35        13(2)e-06
MEssbar2Y12ssbar                              36           36        14(2)e-06
MEssbar2Y12ccbar                              34           34        13(2)e-06
MEssbar2Y12ddbar                              35           35        13(2)e-06
MEssbar2Y12uubar                              43           43        16(2)e-06
MEccbar2Y12XmXm                                0            0                0
MEccbar2Y12ttbar                              21           21         8(2)e-06
MEccbar2Y12bbbar                              19           19         7(2)e-06
MEccbar2Y12ssbar                              26           26       9.9(2)e-06
MEccbar2Y12ccbar                              23           23         9(2)e-06
MEccbar2Y12ddbar                              20           20         8(2)e-06
MEccbar2Y12uubar                              19           19         7(2)e-06
MEddbar2Y12XmXm                                0            0                0
MEddbar2Y12ttbar                             864          864      0.33(1)e-03
MEddbar2Y12bbbar                             973          973      0.37(1)e-03
MEddbar2Y12ssbar                             969          969      0.37(1)e-03
MEddbar2Y12ccbar                             962          962      0.37(1)e-03
MEddbar2Y12ddbar                             890          890      0.34(1)e-03
MEddbar2Y12uubar                             958          958      0.36(1)e-03
MEuubar2Y12XmXm                                0            0                0
MEuubar2Y12ttbar                            1758         1758      0.67(2)e-03
MEuubar2Y12bbbar                            1839         1840      0.70(2)e-03
MEuubar2Y12ssbar                            1918         1918      0.73(2)e-03
MEuubar2Y12ccbar                            1871         1871      0.71(2)e-03
MEuubar2Y12ddbar                            1919         1919      0.73(2)e-03
MEuubar2Y12uubar                            1767         1767      0.67(2)e-03
==============================================================================
Per parton extractor breakdown:
PPExtractor                                30000        30001     11.40(3)e-03
==============================================================================
Per incoming partons breakdown:
d dbar                                      4578         4578      1.74(2)e-03
d ubar                                        21           21         8(2)e-06
d g                                          190          190        72(5)e-06
dbar d                                      4551         4551      1.73(2)e-03
dbar u                                        62           62        24(3)e-06
dbar g                                        27           27        10(2)e-06
ubar d                                        12           12         5(1)e-06
ubar u                                      9166         9166      3.48(3)e-03
ubar g                                        26           26       9.9(2)e-06
u dbar                                        65           65        25(3)e-06
u ubar                                      9188         9189      3.49(3)e-03
u g                                          597          597     0.227(9)e-03
c cbar                                        79           79        30(3)e-06
c sbar                                         0            0                0
c g                                            2            2       0.8(5)e-06
cbar c                                       104          104        40(4)e-06
cbar s                                         0            0                0
cbar g                                        13           13         5(1)e-06
sbar c                                         0            0                0
sbar s                                       168          168        64(5)e-06
sbar g                                        11           11         4(1)e-06
s cbar                                         0            0                0
s sbar                                       151          151        57(5)e-06
s g                                           21           21         8(2)e-06
b bbar                                        33           33        13(2)e-06
b g                                            7            7         3(1)e-06
bbar b                                        39           39        15(2)e-06
bbar g                                         3            3       1.1(7)e-06
g d                                          210          210        80(5)e-06
g dbar                                        32           32        12(2)e-06
g ubar                                        27           27        10(2)e-06
g u                                          563          563     0.214(9)e-03
g c                                            5            5       1.9(8)e-06
g cbar                                         8            8         3(1)e-06
g sbar                                        10           10         4(1)e-06
g s                                           16           16         6(2)e-06
g b                                            8            8         3(1)e-06
g bbar                                         7            7         3(1)e-06
==============================================================================
Detailed breakdown:
(PPExtractor) bbar b (MEbbbar2Y1g b,bbar->Y1,g) 
                                               9            9         3(1)e-06
(PPExtractor) bbar b (MEbbbar2Y1gamma b,bbar->Y1,gamma) 
                                               0            0                0
(PPExtractor) bbar b (MEbbbar2Y1Z0 b,bbar->Y1,Z0) 
                                               0            0                0
(PPExtractor) bbar b (MEbbbar2Y1H b,bbar->Y1,H) 
                                               0            0                0
(PPExtractor) bbar b (MEbbbar2Y1Y1 b,bbar->Y1,Y1) 
                                               0            0                0
(PPExtractor) bbar b (MEbbbar2Y12XmXm b,bbar->Xm,Xm) 
                                               0            0                0
(PPExtractor) bbar b (MEbbbar2Y12ttbar b,bbar->t,tbar) 
                                               4            4       1.5(8)e-06
(PPExtractor) bbar b (MEbbbar2Y12bbbar b,bbar->b,bbar) 
                                               2            2       0.8(5)e-06
(PPExtractor) bbar b (MEbbbar2Y12ssbar b,bbar->s,sbar) 
                                               7            7         3(1)e-06
(PPExtractor) bbar b (MEbbbar2Y12ccbar b,bbar->c,cbar) 
                                               4            4       1.5(8)e-06
(PPExtractor) bbar b (MEbbbar2Y12ddbar b,bbar->d,dbar) 
                                               5            5       1.9(8)e-06
(PPExtractor) bbar b (MEbbbar2Y12uubar b,bbar->u,ubar) 
                                               8            8         3(1)e-06
(PPExtractor) bbar g (MEbbarg2Y1bbar bbar,g->Y1,bbar) 
                                               3            3       1.1(7)e-06
(PPExtractor) cbar s (MEscbar2Y1W- s,cbar->Y1,W-) 
                                               0            0                0
(PPExtractor) cbar c (MEccbar2Y1g c,cbar->Y1,g) 
                                              31           31        12(2)e-06
(PPExtractor) cbar c (MEccbar2Y1gamma c,cbar->Y1,gamma) 
                                               0            0                0
(PPExtractor) cbar c (MEccbar2Y1Z0 c,cbar->Y1,Z0) 
                                               0            0                0
(PPExtractor) cbar c (MEccbar2Y1Y1 c,cbar->Y1,Y1) 
                                               0            0                0
(PPExtractor) cbar c (MEccbar2Y12XmXm c,cbar->Xm,Xm) 
                                               0            0                0
(PPExtractor) cbar c (MEccbar2Y12ttbar c,cbar->t,tbar) 
                                              10           10         4(1)e-06
(PPExtractor) cbar c (MEccbar2Y12bbbar c,cbar->b,bbar) 
                                              13           13         5(1)e-06
(PPExtractor) cbar c (MEccbar2Y12ssbar c,cbar->s,sbar) 
                                              17           17         6(2)e-06
(PPExtractor) cbar c (MEccbar2Y12ccbar c,cbar->c,cbar) 
                                              11           11         4(1)e-06
(PPExtractor) cbar c (MEccbar2Y12ddbar c,cbar->d,dbar) 
                                              11           11         4(1)e-06
(PPExtractor) cbar c (MEccbar2Y12uubar c,cbar->u,ubar) 
                                              11           11         4(1)e-06
(PPExtractor) cbar g (MEcbarg2Y1cbar cbar,g->Y1,cbar) 
                                              13           13         5(1)e-06
(PPExtractor) sbar s (MEssbar2Y1g s,sbar->Y1,g) 
                                              54           54        21(3)e-06
(PPExtractor) sbar s (MEssbar2Y1gamma s,sbar->Y1,gamma) 
                                               0            0                0
(PPExtractor) sbar s (MEssbar2Y1Z0 s,sbar->Y1,Z0) 
                                               0            0                0
(PPExtractor) sbar s (MEssbar2Y1Y1 s,sbar->Y1,Y1) 
                                               0            0                0
(PPExtractor) sbar s (MEssbar2Y12XmXm s,sbar->Xm,Xm) 
                                               0            0                0
(PPExtractor) sbar s (MEssbar2Y12ttbar s,sbar->t,tbar) 
                                              23           23         9(2)e-06
(PPExtractor) sbar s (MEssbar2Y12bbbar s,sbar->b,bbar) 
                                              17           17         6(2)e-06
(PPExtractor) sbar s (MEssbar2Y12ssbar s,sbar->s,sbar) 
                                              19           19         7(2)e-06
(PPExtractor) sbar s (MEssbar2Y12ccbar s,sbar->c,cbar) 
                                              17           17         6(2)e-06
(PPExtractor) sbar s (MEssbar2Y12ddbar s,sbar->d,dbar) 
                                              14           14         5(1)e-06
(PPExtractor) sbar s (MEssbar2Y12uubar s,sbar->u,ubar) 
                                              24           24         9(2)e-06
(PPExtractor) sbar c (MEcsbar2Y1W+ c,sbar->Y1,W+) 
                                               0            0                0
(PPExtractor) sbar g (MEsbarg2Y1sbar sbar,g->Y1,sbar) 
                                              11           11         4(1)e-06
(PPExtractor) ubar d (MEdubar2Y1W- d,ubar->Y1,W-) 
                                              12           12         5(1)e-06
(PPExtractor) ubar u (MEuubar2Y1g u,ubar->Y1,g) 
                                            3520         3520      1.34(2)e-03
(PPExtractor) ubar u (MEuubar2Y1gamma u,ubar->Y1,gamma) 
                                              54           54        21(3)e-06
(PPExtractor) ubar u (MEuubar2Y1Z0 u,ubar->Y1,Z0) 
                                               7            7         3(1)e-06
(PPExtractor) ubar u (MEuubar2Y1Y1 u,ubar->Y1,Y1) 
                                               0            0                0
(PPExtractor) ubar u (MEuubar2Y12XmXm u,ubar->Xm,Xm) 
                                               0            0                0
(PPExtractor) ubar u (MEuubar2Y12ttbar u,ubar->t,tbar) 
                                             885          885      0.34(1)e-03
(PPExtractor) ubar u (MEuubar2Y12bbbar u,ubar->b,bbar) 
                                             945          945      0.36(1)e-03
(PPExtractor) ubar u (MEuubar2Y12ssbar u,ubar->s,sbar) 
                                             980          980      0.37(1)e-03
(PPExtractor) ubar u (MEuubar2Y12ccbar u,ubar->c,cbar) 
                                             933          933      0.35(1)e-03
(PPExtractor) ubar u (MEuubar2Y12ddbar u,ubar->d,dbar) 
                                             964          964      0.37(1)e-03
(PPExtractor) ubar u (MEuubar2Y12uubar u,ubar->u,ubar) 
                                             878          878      0.33(1)e-03
(PPExtractor) ubar g (MEubarg2Y1ubar ubar,g->Y1,ubar) 
                                              26           26       9.9(2)e-06
(PPExtractor) dbar d (MEddbar2Y1g d,dbar->Y1,g) 
                                            1725         1725      0.66(2)e-03
(PPExtractor) dbar d (MEddbar2Y1gamma d,dbar->Y1,gamma) 
                                              12           12         5(1)e-06
(PPExtractor) dbar d (MEddbar2Y1Z0 d,dbar->Y1,Z0) 
                                               6            6       2.3(9)e-06
(PPExtractor) dbar d (MEddbar2Y1Y1 d,dbar->Y1,Y1) 
                                               0            0                0
(PPExtractor) dbar d (MEddbar2Y12XmXm d,dbar->Xm,Xm) 
                                               0            0                0
(PPExtractor) dbar d (MEddbar2Y12ttbar d,dbar->t,tbar) 
                                             431          431     0.164(8)e-03
(PPExtractor) dbar d (MEddbar2Y12bbbar d,dbar->b,bbar) 
                                             503          503     0.191(8)e-03
(PPExtractor) dbar d (MEddbar2Y12ssbar d,dbar->s,sbar) 
                                             466          466     0.177(8)e-03
(PPExtractor) dbar d (MEddbar2Y12ccbar d,dbar->c,cbar) 
                                             481          481     0.183(8)e-03
(PPExtractor) dbar d (MEddbar2Y12ddbar d,dbar->d,dbar) 
                                             458          458     0.174(8)e-03
(PPExtractor) dbar d (MEddbar2Y12uubar d,dbar->u,ubar) 
                                             469          469     0.178(8)e-03
(PPExtractor) dbar u (MEudbar2Y1W+ u,dbar->Y1,W+) 
                                              62           62        24(3)e-06
(PPExtractor) dbar g (MEdbarg2Y1dbar dbar,g->Y1,dbar) 
                                              27           27        10(2)e-06
(PPExtractor) d ubar (MEdubar2Y1W- d,ubar->Y1,W-) 
                                              21           21         8(2)e-06
(PPExtractor) d dbar (MEddbar2Y1g d,dbar->Y1,g) 
                                            1755         1755      0.67(2)e-03
(PPExtractor) d dbar (MEddbar2Y1gamma d,dbar->Y1,gamma) 
                                               7            7         3(1)e-06
(PPExtractor) d dbar (MEddbar2Y1Z0 d,dbar->Y1,Z0) 
                                               8            8         3(1)e-06
(PPExtractor) d dbar (MEddbar2Y1Y1 d,dbar->Y1,Y1) 
                                               0            0                0
(PPExtractor) d dbar (MEddbar2Y12XmXm d,dbar->Xm,Xm) 
                                               0            0                0
(PPExtractor) d dbar (MEddbar2Y12ttbar d,dbar->t,tbar) 
                                             433          433     0.165(8)e-03
(PPExtractor) d dbar (MEddbar2Y12bbbar d,dbar->b,bbar) 
                                             470          470     0.179(8)e-03
(PPExtractor) d dbar (MEddbar2Y12ssbar d,dbar->s,sbar) 
                                             503          503     0.191(8)e-03
(PPExtractor) d dbar (MEddbar2Y12ccbar d,dbar->c,cbar) 
                                             481          481     0.183(8)e-03
(PPExtractor) d dbar (MEddbar2Y12ddbar d,dbar->d,dbar) 
                                             432          432     0.164(8)e-03
(PPExtractor) d dbar (MEddbar2Y12uubar d,dbar->u,ubar) 
                                             489          489     0.186(8)e-03
(PPExtractor) d g (MEdg2Y1d d,g->Y1,d) 
                                             190          190        72(5)e-06
(PPExtractor) u ubar (MEuubar2Y1g u,ubar->Y1,g) 
                                            3621         3621      1.38(2)e-03
(PPExtractor) u ubar (MEuubar2Y1gamma u,ubar->Y1,gamma) 
                                              62           62        24(3)e-06
(PPExtractor) u ubar (MEuubar2Y1Z0 u,ubar->Y1,Z0) 
                                              18           18         7(2)e-06
(PPExtractor) u ubar (MEuubar2Y1Y1 u,ubar->Y1,Y1) 
                                               0            0                0
(PPExtractor) u ubar (MEuubar2Y12XmXm u,ubar->Xm,Xm) 
                                               0            0                0
(PPExtractor) u ubar (MEuubar2Y12ttbar u,ubar->t,tbar) 
                                             873          873      0.33(1)e-03
(PPExtractor) u ubar (MEuubar2Y12bbbar u,ubar->b,bbar) 
                                             894          895      0.34(1)e-03
(PPExtractor) u ubar (MEuubar2Y12ssbar u,ubar->s,sbar) 
                                             938          938      0.36(1)e-03
(PPExtractor) u ubar (MEuubar2Y12ccbar u,ubar->c,cbar) 
                                             938          938      0.36(1)e-03
(PPExtractor) u ubar (MEuubar2Y12ddbar u,ubar->d,dbar) 
                                             955          955      0.36(1)e-03
(PPExtractor) u ubar (MEuubar2Y12uubar u,ubar->u,ubar) 
                                             889          889      0.34(1)e-03
(PPExtractor) u dbar (MEudbar2Y1W+ u,dbar->Y1,W+) 
                                              65           65        25(3)e-06
(PPExtractor) u g (MEug2Y1u u,g->Y1,u) 
                                             597          597     0.227(9)e-03
(PPExtractor) s cbar (MEscbar2Y1W- s,cbar->Y1,W-) 
                                               0            0                0
(PPExtractor) s sbar (MEssbar2Y1g s,sbar->Y1,g) 
                                              42           42        16(2)e-06
(PPExtractor) s sbar (MEssbar2Y1gamma s,sbar->Y1,gamma) 
                                               0            0                0
(PPExtractor) s sbar (MEssbar2Y1Z0 s,sbar->Y1,Z0) 
                                               0            0                0
(PPExtractor) s sbar (MEssbar2Y1Y1 s,sbar->Y1,Y1) 
                                               0            0                0
(PPExtractor) s sbar (MEssbar2Y12XmXm s,sbar->Xm,Xm) 
                                               0            0                0
(PPExtractor) s sbar (MEssbar2Y12ttbar s,sbar->t,tbar) 
                                              17           17         6(2)e-06
(PPExtractor) s sbar (MEssbar2Y12bbbar s,sbar->b,bbar) 
                                              18           18         7(2)e-06
(PPExtractor) s sbar (MEssbar2Y12ssbar s,sbar->s,sbar) 
                                              17           17         6(2)e-06
(PPExtractor) s sbar (MEssbar2Y12ccbar s,sbar->c,cbar) 
                                              17           17         6(2)e-06
(PPExtractor) s sbar (MEssbar2Y12ddbar s,sbar->d,dbar) 
                                              21           21         8(2)e-06
(PPExtractor) s sbar (MEssbar2Y12uubar s,sbar->u,ubar) 
                                              19           19         7(2)e-06
(PPExtractor) s g (MEsg2Y1s s,g->Y1,s) 
                                              21           21         8(2)e-06
(PPExtractor) c cbar (MEccbar2Y1g c,cbar->Y1,g) 
                                              24           24         9(2)e-06
(PPExtractor) c cbar (MEccbar2Y1gamma c,cbar->Y1,gamma) 
                                               0            0                0
(PPExtractor) c cbar (MEccbar2Y1Z0 c,cbar->Y1,Z0) 
                                               0            0                0
(PPExtractor) c cbar (MEccbar2Y1Y1 c,cbar->Y1,Y1) 
                                               0            0                0
(PPExtractor) c cbar (MEccbar2Y12XmXm c,cbar->Xm,Xm) 
                                               0            0                0
(PPExtractor) c cbar (MEccbar2Y12ttbar c,cbar->t,tbar) 
                                              11           11         4(1)e-06
(PPExtractor) c cbar (MEccbar2Y12bbbar c,cbar->b,bbar) 
                                               6            6       2.3(9)e-06
(PPExtractor) c cbar (MEccbar2Y12ssbar c,cbar->s,sbar) 
                                               9            9         3(1)e-06
(PPExtractor) c cbar (MEccbar2Y12ccbar c,cbar->c,cbar) 
                                              12           12         5(1)e-06
(PPExtractor) c cbar (MEccbar2Y12ddbar c,cbar->d,dbar) 
                                               9            9         3(1)e-06
(PPExtractor) c cbar (MEccbar2Y12uubar c,cbar->u,ubar) 
                                               8            8         3(1)e-06
(PPExtractor) c sbar (MEcsbar2Y1W+ c,sbar->Y1,W+) 
                                               0            0                0
(PPExtractor) c g (MEcg2Y1c c,g->Y1,c) 
                                               2            2       0.8(5)e-06
(PPExtractor) b bbar (MEbbbar2Y1g b,bbar->Y1,g) 
                                              12           12         5(1)e-06
(PPExtractor) b bbar (MEbbbar2Y1gamma b,bbar->Y1,gamma) 
                                               0            0                0
(PPExtractor) b bbar (MEbbbar2Y1Z0 b,bbar->Y1,Z0) 
                                               0            0                0
(PPExtractor) b bbar (MEbbbar2Y1H b,bbar->Y1,H) 
                                               0            0                0
(PPExtractor) b bbar (MEbbbar2Y1Y1 b,bbar->Y1,Y1) 
                                               0            0                0
(PPExtractor) b bbar (MEbbbar2Y12XmXm b,bbar->Xm,Xm) 
                                               0            0                0
(PPExtractor) b bbar (MEbbbar2Y12ttbar b,bbar->t,tbar) 
                                               2            2       0.8(5)e-06
(PPExtractor) b bbar (MEbbbar2Y12bbbar b,bbar->b,bbar) 
                                               6            6       2.3(9)e-06
(PPExtractor) b bbar (MEbbbar2Y12ssbar b,bbar->s,sbar) 
                                               4            4       1.5(8)e-06
(PPExtractor) b bbar (MEbbbar2Y12ccbar b,bbar->c,cbar) 
                                               2            2       0.8(5)e-06
(PPExtractor) b bbar (MEbbbar2Y12ddbar b,bbar->d,dbar) 
                                               4            4       1.5(8)e-06
(PPExtractor) b bbar (MEbbbar2Y12uubar b,bbar->u,ubar) 
                                               3            3       1.1(7)e-06
(PPExtractor) b g (MEbg2Y1b b,g->Y1,b) 
                                               7            7         3(1)e-06
(PPExtractor) g bbar (MEbbarg2Y1bbar bbar,g->Y1,bbar) 
                                               7            7         3(1)e-06
(PPExtractor) g cbar (MEcbarg2Y1cbar cbar,g->Y1,cbar) 
                                               8            8         3(1)e-06
(PPExtractor) g sbar (MEsbarg2Y1sbar sbar,g->Y1,sbar) 
                                              10           10         4(1)e-06
(PPExtractor) g ubar (MEubarg2Y1ubar ubar,g->Y1,ubar) 
                                              27           27        10(2)e-06
(PPExtractor) g dbar (MEdbarg2Y1dbar dbar,g->Y1,dbar) 
                                              32           32        12(2)e-06
(PPExtractor) g d (MEdg2Y1d d,g->Y1,d) 
                                             210          210        80(5)e-06
(PPExtractor) g u (MEug2Y1u u,g->Y1,u) 
                                             563          563     0.214(9)e-03
(PPExtractor) g s (MEsg2Y1s s,g->Y1,s) 
                                              16           16         6(2)e-06
(PPExtractor) g c (MEcg2Y1c c,g->Y1,c) 
                                               5            5       1.9(8)e-06
(PPExtractor) g b (MEbg2Y1b b,g->Y1,b) 
                                               8            8         3(1)e-06
==============================================================================
