>>>>>>>>>>>>>>>>>>>>>>>>>>>>>>>>>>>>>>>>>>>>>>>>>>>>>>>>>>>>>>>>>>>>>>>>>>>>>>
>>>> Toolkit for HEP Event Generation - ThePEG f0c7c9e4efc0 (default) <<<<<<<<
>>>> Fri Nov 15 16:28:51 2019                                             <<<<
<<<<<<<<<<<<<<<<<<<<<<<<<<<<<<<<<<<<<<<<<<<<<<<<<<<<<<<<<<<<<<<<<<<<<<<<<<<<<<

>> Herwig b7689adb1ad6 (default) / ThePEG f0c7c9e4efc0 (default)

==============================================================================
Statistics for event handler 'EventHandler':
                                       generated    number of    Cross-section
                                          events     attempts             (nb)
==============================================================================
Total (from attempted events): including vetoed events           34.54(9)e+00
==============================================================================
Total (from generated events):            30000        30001     34.53(9)e+00
Events carry unit weights.
==============================================================================
Per matrix element breakdown:
MEbbarg2Y1bbar                                83           83        96(1)e-03
MEcbarg2Y1cbar                               136          136      0.16(1)e+00
MEsbarg2Y1sbar                               172          172      0.20(2)e+00
MEubarg2Y1ubar                               307          307      0.35(2)e+00
MEdbarg2Y1dbar                               379          379      0.44(2)e+00
MEdubar2Y1W-                                   9            9        10(3)e-03
MEddbar2Y1g                                  749          749      0.86(3)e+00
MEddbar2Y1gamma                                1            1         1(1)e-03
MEddbar2Y1Z0                                   1            1         1(1)e-03
MEddbar2Y1Y1                                   0            0                0
MEdg2Y1d                                     940          940      1.08(3)e+00
MEuubar2Y1g                                 1208         1208      1.39(4)e+00
MEuubar2Y1gamma                               21           21        24(5)e-03
MEuubar2Y1Z0                                   2            2         2(2)e-03
MEuubar2Y1Y1                                   1            1         1(1)e-03
MEudbar2Y1W+                                  12           12        14(4)e-03
MEug2Y1u                                    1706         1706      1.96(5)e+00
MEscbar2Y1W-                                   0            0                0
MEssbar2Y1g                                  128          128      0.15(1)e+00
MEssbar2Y1gamma                                1            1         1(1)e-03
MEssbar2Y1Z0                                   0            0                0
MEssbar2Y1Y1                                   0            0                0
MEsg2Y1s                                     175          175      0.20(2)e+00
MEccbar2Y1g                                   55           55        63(9)e-03
MEccbar2Y1gamma                                1            1         1(1)e-03
MEccbar2Y1Z0                                   0            0                0
MEccbar2Y1Y1                                   0            0                0
MEcsbar2Y1W+                                   0            0                0
MEcg2Y1c                                     146          146      0.17(1)e+00
MEbbbar2Y1g                                   27           27        31(6)e-03
MEbbbar2Y1gamma                                0            0                0
MEbbbar2Y1Z0                                   0            0                0
MEbbbar2Y1H                                    0            0                0
MEbbbar2Y1Y1                                   0            0                0
MEbg2Y1b                                      77           77       90(10)e-03
MEbbbar2Y12XmXm                                0            0                0
MEbbbar2Y12ttbar                               0            0                0
MEbbbar2Y12bbbar                              78           78       90(10)e-03
MEbbbar2Y12ssbar                              76           76       90(10)e-03
MEbbbar2Y12ccbar                              81           81       90(10)e-03
MEbbbar2Y12ddbar                              87           87      0.10(1)e+00
MEbbbar2Y12uubar                              86           86        99(1)e-03
MEssbar2Y12XmXm                                0            0                0
MEssbar2Y12ttbar                               0            0                0
MEssbar2Y12bbbar                             357          357      0.41(2)e+00
MEssbar2Y12ssbar                             363          363      0.42(2)e+00
MEssbar2Y12ccbar                             384          384      0.44(2)e+00
MEssbar2Y12ddbar                             386          387      0.44(2)e+00
MEssbar2Y12uubar                             399          399      0.46(2)e+00
MEccbar2Y12XmXm                                0            0                0
MEccbar2Y12ttbar                               0            0                0
MEccbar2Y12bbbar                             192          192      0.22(2)e+00
MEccbar2Y12ssbar                             194          194      0.22(2)e+00
MEccbar2Y12ccbar                             195          195      0.22(2)e+00
MEccbar2Y12ddbar                             176          176      0.20(2)e+00
MEccbar2Y12uubar                             195          195      0.22(2)e+00
MEddbar2Y12XmXm                                0            0                0
MEddbar2Y12ttbar                               0            0                0
MEddbar2Y12bbbar                            1701         1701      1.96(5)e+00
MEddbar2Y12ssbar                            1624         1624      1.87(5)e+00
MEddbar2Y12ccbar                            1595         1595      1.84(5)e+00
MEddbar2Y12ddbar                            1587         1587      1.83(4)e+00
MEddbar2Y12uubar                            1550         1550      1.78(4)e+00
MEuubar2Y12XmXm                                0            0                0
MEuubar2Y12ttbar                               1            1         1(1)e-03
MEuubar2Y12bbbar                            2459         2459      2.83(6)e+00
MEuubar2Y12ssbar                            2449         2449      2.82(6)e+00
MEuubar2Y12ccbar                            2477         2477      2.85(6)e+00
MEuubar2Y12ddbar                            2444         2444      2.81(6)e+00
MEuubar2Y12uubar                            2527         2527      2.91(6)e+00
==============================================================================
Per parton extractor breakdown:
PPExtractor                                30000        30001     34.53(9)e+00
==============================================================================
Per incoming partons breakdown:
d dbar                                      4307         4307      4.96(7)e+00
d ubar                                         4            4         5(2)e-03
d g                                          453          453      0.52(2)e+00
dbar d                                      4501         4501      5.18(7)e+00
dbar u                                         4            4         5(2)e-03
dbar g                                       194          194      0.22(2)e+00
ubar d                                         5            5         6(3)e-03
ubar u                                      6807         6807      7.84(9)e+00
ubar g                                       142          142      0.16(1)e+00
u dbar                                         8            8         9(3)e-03
u ubar                                      6782         6782      7.81(9)e+00
u g                                          859          859      0.99(3)e+00
c cbar                                       502          502      0.58(3)e+00
c sbar                                         0            0                0
c g                                           68           68        78(9)e-03
cbar c                                       506          506      0.58(3)e+00
cbar s                                         0            0                0
cbar g                                        59           59        68(9)e-03
sbar c                                         0            0                0
sbar s                                      1012         1012      1.16(4)e+00
sbar g                                        91           91      0.10(1)e+00
s cbar                                         0            0                0
s sbar                                      1006         1007      1.16(4)e+00
s g                                           92           92      0.11(1)e+00
b bbar                                       221          221      0.25(2)e+00
b g                                           41           41        47(7)e-03
bbar b                                       214          214      0.25(2)e+00
bbar g                                        43           43        49(8)e-03
g d                                          487          487      0.56(3)e+00
g dbar                                       185          185      0.21(2)e+00
g ubar                                       165          165      0.19(1)e+00
g u                                          847          847      0.98(3)e+00
g c                                           78           78       90(10)e-03
g cbar                                        77           77       90(10)e-03
g sbar                                        81           81       90(10)e-03
g s                                           83           83        96(1)e-03
g b                                           36           36        41(7)e-03
g bbar                                        40           40        46(7)e-03
==============================================================================
Detailed breakdown:
(PPExtractor) bbar b (MEbbbar2Y1g b,bbar->Y1,g) 
                                              12           12        14(4)e-03
(PPExtractor) bbar b (MEbbbar2Y1gamma b,bbar->Y1,gamma) 
                                               0            0                0
(PPExtractor) bbar b (MEbbbar2Y1Z0 b,bbar->Y1,Z0) 
                                               0            0                0
(PPExtractor) bbar b (MEbbbar2Y1H b,bbar->Y1,H) 
                                               0            0                0
(PPExtractor) bbar b (MEbbbar2Y1Y1 b,bbar->Y1,Y1) 
                                               0            0                0
(PPExtractor) bbar b (MEbbbar2Y12XmXm b,bbar->Xm,Xm) 
                                               0            0                0
(PPExtractor) bbar b (MEbbbar2Y12ttbar b,bbar->t,tbar) 
                                               0            0                0
(PPExtractor) bbar b (MEbbbar2Y12bbbar b,bbar->b,bbar) 
                                              41           41        47(7)e-03
(PPExtractor) bbar b (MEbbbar2Y12ssbar b,bbar->s,sbar) 
                                              40           40        46(7)e-03
(PPExtractor) bbar b (MEbbbar2Y12ccbar b,bbar->c,cbar) 
                                              44           44        51(8)e-03
(PPExtractor) bbar b (MEbbbar2Y12ddbar b,bbar->d,dbar) 
                                              36           36        41(7)e-03
(PPExtractor) bbar b (MEbbbar2Y12uubar b,bbar->u,ubar) 
                                              41           41        47(7)e-03
(PPExtractor) bbar g (MEbbarg2Y1bbar bbar,g->Y1,bbar) 
                                              43           43        49(8)e-03
(PPExtractor) cbar s (MEscbar2Y1W- s,cbar->Y1,W-) 
                                               0            0                0
(PPExtractor) cbar c (MEccbar2Y1g c,cbar->Y1,g) 
                                              27           27        31(6)e-03
(PPExtractor) cbar c (MEccbar2Y1gamma c,cbar->Y1,gamma) 
                                               1            1         1(1)e-03
(PPExtractor) cbar c (MEccbar2Y1Z0 c,cbar->Y1,Z0) 
                                               0            0                0
(PPExtractor) cbar c (MEccbar2Y1Y1 c,cbar->Y1,Y1) 
                                               0            0                0
(PPExtractor) cbar c (MEccbar2Y12XmXm c,cbar->Xm,Xm) 
                                               0            0                0
(PPExtractor) cbar c (MEccbar2Y12ttbar c,cbar->t,tbar) 
                                               0            0                0
(PPExtractor) cbar c (MEccbar2Y12bbbar c,cbar->b,bbar) 
                                             103          103      0.12(1)e+00
(PPExtractor) cbar c (MEccbar2Y12ssbar c,cbar->s,sbar) 
                                              86           86        99(1)e-03
(PPExtractor) cbar c (MEccbar2Y12ccbar c,cbar->c,cbar) 
                                              99           99      0.11(1)e+00
(PPExtractor) cbar c (MEccbar2Y12ddbar c,cbar->d,dbar) 
                                              86           86        99(1)e-03
(PPExtractor) cbar c (MEccbar2Y12uubar c,cbar->u,ubar) 
                                             104          104      0.12(1)e+00
(PPExtractor) cbar g (MEcbarg2Y1cbar cbar,g->Y1,cbar) 
                                              59           59        68(9)e-03
(PPExtractor) sbar s (MEssbar2Y1g s,sbar->Y1,g) 
                                              63           63        73(9)e-03
(PPExtractor) sbar s (MEssbar2Y1gamma s,sbar->Y1,gamma) 
                                               0            0                0
(PPExtractor) sbar s (MEssbar2Y1Z0 s,sbar->Y1,Z0) 
                                               0            0                0
(PPExtractor) sbar s (MEssbar2Y1Y1 s,sbar->Y1,Y1) 
                                               0            0                0
(PPExtractor) sbar s (MEssbar2Y12XmXm s,sbar->Xm,Xm) 
                                               0            0                0
(PPExtractor) sbar s (MEssbar2Y12ttbar s,sbar->t,tbar) 
                                               0            0                0
(PPExtractor) sbar s (MEssbar2Y12bbbar s,sbar->b,bbar) 
                                             184          184      0.21(2)e+00
(PPExtractor) sbar s (MEssbar2Y12ssbar s,sbar->s,sbar) 
                                             180          180      0.21(2)e+00
(PPExtractor) sbar s (MEssbar2Y12ccbar s,sbar->c,cbar) 
                                             180          180      0.21(2)e+00
(PPExtractor) sbar s (MEssbar2Y12ddbar s,sbar->d,dbar) 
                                             202          202      0.23(2)e+00
(PPExtractor) sbar s (MEssbar2Y12uubar s,sbar->u,ubar) 
                                             203          203      0.23(2)e+00
(PPExtractor) sbar c (MEcsbar2Y1W+ c,sbar->Y1,W+) 
                                               0            0                0
(PPExtractor) sbar g (MEsbarg2Y1sbar sbar,g->Y1,sbar) 
                                              91           91      0.10(1)e+00
(PPExtractor) ubar d (MEdubar2Y1W- d,ubar->Y1,W-) 
                                               5            5         6(3)e-03
(PPExtractor) ubar u (MEuubar2Y1g u,ubar->Y1,g) 
                                             624          624      0.72(3)e+00
(PPExtractor) ubar u (MEuubar2Y1gamma u,ubar->Y1,gamma) 
                                              16           16        18(5)e-03
(PPExtractor) ubar u (MEuubar2Y1Z0 u,ubar->Y1,Z0) 
                                               0            0                0
(PPExtractor) ubar u (MEuubar2Y1Y1 u,ubar->Y1,Y1) 
                                               1            1         1(1)e-03
(PPExtractor) ubar u (MEuubar2Y12XmXm u,ubar->Xm,Xm) 
                                               0            0                0
(PPExtractor) ubar u (MEuubar2Y12ttbar u,ubar->t,tbar) 
                                               0            0                0
(PPExtractor) ubar u (MEuubar2Y12bbbar u,ubar->b,bbar) 
                                            1201         1201      1.38(4)e+00
(PPExtractor) ubar u (MEuubar2Y12ssbar u,ubar->s,sbar) 
                                            1238         1238      1.43(4)e+00
(PPExtractor) ubar u (MEuubar2Y12ccbar u,ubar->c,cbar) 
                                            1257         1257      1.45(4)e+00
(PPExtractor) ubar u (MEuubar2Y12ddbar u,ubar->d,dbar) 
                                            1236         1236      1.42(4)e+00
(PPExtractor) ubar u (MEuubar2Y12uubar u,ubar->u,ubar) 
                                            1234         1234      1.42(4)e+00
(PPExtractor) ubar g (MEubarg2Y1ubar ubar,g->Y1,ubar) 
                                             142          142      0.16(1)e+00
(PPExtractor) dbar d (MEddbar2Y1g d,dbar->Y1,g) 
                                             369          369      0.42(2)e+00
(PPExtractor) dbar d (MEddbar2Y1gamma d,dbar->Y1,gamma) 
                                               0            0                0
(PPExtractor) dbar d (MEddbar2Y1Z0 d,dbar->Y1,Z0) 
                                               1            1         1(1)e-03
(PPExtractor) dbar d (MEddbar2Y1Y1 d,dbar->Y1,Y1) 
                                               0            0                0
(PPExtractor) dbar d (MEddbar2Y12XmXm d,dbar->Xm,Xm) 
                                               0            0                0
(PPExtractor) dbar d (MEddbar2Y12ttbar d,dbar->t,tbar) 
                                               0            0                0
(PPExtractor) dbar d (MEddbar2Y12bbbar d,dbar->b,bbar) 
                                             838          838      0.96(3)e+00
(PPExtractor) dbar d (MEddbar2Y12ssbar d,dbar->s,sbar) 
                                             832          832      0.96(3)e+00
(PPExtractor) dbar d (MEddbar2Y12ccbar d,dbar->c,cbar) 
                                             840          840      0.97(3)e+00
(PPExtractor) dbar d (MEddbar2Y12ddbar d,dbar->d,dbar) 
                                             803          803      0.92(3)e+00
(PPExtractor) dbar d (MEddbar2Y12uubar d,dbar->u,ubar) 
                                             818          818      0.94(3)e+00
(PPExtractor) dbar u (MEudbar2Y1W+ u,dbar->Y1,W+) 
                                               4            4         5(2)e-03
(PPExtractor) dbar g (MEdbarg2Y1dbar dbar,g->Y1,dbar) 
                                             194          194      0.22(2)e+00
(PPExtractor) d ubar (MEdubar2Y1W- d,ubar->Y1,W-) 
                                               4            4         5(2)e-03
(PPExtractor) d dbar (MEddbar2Y1g d,dbar->Y1,g) 
                                             380          380      0.44(2)e+00
(PPExtractor) d dbar (MEddbar2Y1gamma d,dbar->Y1,gamma) 
                                               1            1         1(1)e-03
(PPExtractor) d dbar (MEddbar2Y1Z0 d,dbar->Y1,Z0) 
                                               0            0                0
(PPExtractor) d dbar (MEddbar2Y1Y1 d,dbar->Y1,Y1) 
                                               0            0                0
(PPExtractor) d dbar (MEddbar2Y12XmXm d,dbar->Xm,Xm) 
                                               0            0                0
(PPExtractor) d dbar (MEddbar2Y12ttbar d,dbar->t,tbar) 
                                               0            0                0
(PPExtractor) d dbar (MEddbar2Y12bbbar d,dbar->b,bbar) 
                                             863          863      0.99(3)e+00
(PPExtractor) d dbar (MEddbar2Y12ssbar d,dbar->s,sbar) 
                                             792          792      0.91(3)e+00
(PPExtractor) d dbar (MEddbar2Y12ccbar d,dbar->c,cbar) 
                                             755          755      0.87(3)e+00
(PPExtractor) d dbar (MEddbar2Y12ddbar d,dbar->d,dbar) 
                                             784          784      0.90(3)e+00
(PPExtractor) d dbar (MEddbar2Y12uubar d,dbar->u,ubar) 
                                             732          732      0.84(3)e+00
(PPExtractor) d g (MEdg2Y1d d,g->Y1,d) 
                                             453          453      0.52(2)e+00
(PPExtractor) u ubar (MEuubar2Y1g u,ubar->Y1,g) 
                                             584          584      0.67(3)e+00
(PPExtractor) u ubar (MEuubar2Y1gamma u,ubar->Y1,gamma) 
                                               5            5         6(3)e-03
(PPExtractor) u ubar (MEuubar2Y1Z0 u,ubar->Y1,Z0) 
                                               2            2         2(2)e-03
(PPExtractor) u ubar (MEuubar2Y1Y1 u,ubar->Y1,Y1) 
                                               0            0                0
(PPExtractor) u ubar (MEuubar2Y12XmXm u,ubar->Xm,Xm) 
                                               0            0                0
(PPExtractor) u ubar (MEuubar2Y12ttbar u,ubar->t,tbar) 
                                               1            1         1(1)e-03
(PPExtractor) u ubar (MEuubar2Y12bbbar u,ubar->b,bbar) 
                                            1258         1258      1.45(4)e+00
(PPExtractor) u ubar (MEuubar2Y12ssbar u,ubar->s,sbar) 
                                            1211         1211      1.39(4)e+00
(PPExtractor) u ubar (MEuubar2Y12ccbar u,ubar->c,cbar) 
                                            1220         1220      1.40(4)e+00
(PPExtractor) u ubar (MEuubar2Y12ddbar u,ubar->d,dbar) 
                                            1208         1208      1.39(4)e+00
(PPExtractor) u ubar (MEuubar2Y12uubar u,ubar->u,ubar) 
                                            1293         1293      1.49(4)e+00
(PPExtractor) u dbar (MEudbar2Y1W+ u,dbar->Y1,W+) 
                                               8            8         9(3)e-03
(PPExtractor) u g (MEug2Y1u u,g->Y1,u) 
                                             859          859      0.99(3)e+00
(PPExtractor) s cbar (MEscbar2Y1W- s,cbar->Y1,W-) 
                                               0            0                0
(PPExtractor) s sbar (MEssbar2Y1g s,sbar->Y1,g) 
                                              65           65        75(9)e-03
(PPExtractor) s sbar (MEssbar2Y1gamma s,sbar->Y1,gamma) 
                                               1            1         1(1)e-03
(PPExtractor) s sbar (MEssbar2Y1Z0 s,sbar->Y1,Z0) 
                                               0            0                0
(PPExtractor) s sbar (MEssbar2Y1Y1 s,sbar->Y1,Y1) 
                                               0            0                0
(PPExtractor) s sbar (MEssbar2Y12XmXm s,sbar->Xm,Xm) 
                                               0            0                0
(PPExtractor) s sbar (MEssbar2Y12ttbar s,sbar->t,tbar) 
                                               0            0                0
(PPExtractor) s sbar (MEssbar2Y12bbbar s,sbar->b,bbar) 
                                             173          173      0.20(2)e+00
(PPExtractor) s sbar (MEssbar2Y12ssbar s,sbar->s,sbar) 
                                             183          183      0.21(2)e+00
(PPExtractor) s sbar (MEssbar2Y12ccbar s,sbar->c,cbar) 
                                             204          204      0.23(2)e+00
(PPExtractor) s sbar (MEssbar2Y12ddbar s,sbar->d,dbar) 
                                             184          185      0.21(2)e+00
(PPExtractor) s sbar (MEssbar2Y12uubar s,sbar->u,ubar) 
                                             196          196      0.23(2)e+00
(PPExtractor) s g (MEsg2Y1s s,g->Y1,s) 
                                              92           92      0.11(1)e+00
(PPExtractor) c cbar (MEccbar2Y1g c,cbar->Y1,g) 
                                              28           28        32(6)e-03
(PPExtractor) c cbar (MEccbar2Y1gamma c,cbar->Y1,gamma) 
                                               0            0                0
(PPExtractor) c cbar (MEccbar2Y1Z0 c,cbar->Y1,Z0) 
                                               0            0                0
(PPExtractor) c cbar (MEccbar2Y1Y1 c,cbar->Y1,Y1) 
                                               0            0                0
(PPExtractor) c cbar (MEccbar2Y12XmXm c,cbar->Xm,Xm) 
                                               0            0                0
(PPExtractor) c cbar (MEccbar2Y12ttbar c,cbar->t,tbar) 
                                               0            0                0
(PPExtractor) c cbar (MEccbar2Y12bbbar c,cbar->b,bbar) 
                                              89           89      0.10(1)e+00
(PPExtractor) c cbar (MEccbar2Y12ssbar c,cbar->s,sbar) 
                                             108          108      0.12(1)e+00
(PPExtractor) c cbar (MEccbar2Y12ccbar c,cbar->c,cbar) 
                                              96           96      0.11(1)e+00
(PPExtractor) c cbar (MEccbar2Y12ddbar c,cbar->d,dbar) 
                                              90           90      0.10(1)e+00
(PPExtractor) c cbar (MEccbar2Y12uubar c,cbar->u,ubar) 
                                              91           91      0.10(1)e+00
(PPExtractor) c sbar (MEcsbar2Y1W+ c,sbar->Y1,W+) 
                                               0            0                0
(PPExtractor) c g (MEcg2Y1c c,g->Y1,c) 
                                              68           68        78(9)e-03
(PPExtractor) b bbar (MEbbbar2Y1g b,bbar->Y1,g) 
                                              15           15        17(4)e-03
(PPExtractor) b bbar (MEbbbar2Y1gamma b,bbar->Y1,gamma) 
                                               0            0                0
(PPExtractor) b bbar (MEbbbar2Y1Z0 b,bbar->Y1,Z0) 
                                               0            0                0
(PPExtractor) b bbar (MEbbbar2Y1H b,bbar->Y1,H) 
                                               0            0                0
(PPExtractor) b bbar (MEbbbar2Y1Y1 b,bbar->Y1,Y1) 
                                               0            0                0
(PPExtractor) b bbar (MEbbbar2Y12XmXm b,bbar->Xm,Xm) 
                                               0            0                0
(PPExtractor) b bbar (MEbbbar2Y12ttbar b,bbar->t,tbar) 
                                               0            0                0
(PPExtractor) b bbar (MEbbbar2Y12bbbar b,bbar->b,bbar) 
                                              37           37        43(7)e-03
(PPExtractor) b bbar (MEbbbar2Y12ssbar b,bbar->s,sbar) 
                                              36           36        41(7)e-03
(PPExtractor) b bbar (MEbbbar2Y12ccbar b,bbar->c,cbar) 
                                              37           37        43(7)e-03
(PPExtractor) b bbar (MEbbbar2Y12ddbar b,bbar->d,dbar) 
                                              51           51        59(8)e-03
(PPExtractor) b bbar (MEbbbar2Y12uubar b,bbar->u,ubar) 
                                              45           45        52(8)e-03
(PPExtractor) b g (MEbg2Y1b b,g->Y1,b) 
                                              41           41        47(7)e-03
(PPExtractor) g bbar (MEbbarg2Y1bbar bbar,g->Y1,bbar) 
                                              40           40        46(7)e-03
(PPExtractor) g cbar (MEcbarg2Y1cbar cbar,g->Y1,cbar) 
                                              77           77       90(10)e-03
(PPExtractor) g sbar (MEsbarg2Y1sbar sbar,g->Y1,sbar) 
                                              81           81       90(10)e-03
(PPExtractor) g ubar (MEubarg2Y1ubar ubar,g->Y1,ubar) 
                                             165          165      0.19(1)e+00
(PPExtractor) g dbar (MEdbarg2Y1dbar dbar,g->Y1,dbar) 
                                             185          185      0.21(2)e+00
(PPExtractor) g d (MEdg2Y1d d,g->Y1,d) 
                                             487          487      0.56(3)e+00
(PPExtractor) g u (MEug2Y1u u,g->Y1,u) 
                                             847          847      0.98(3)e+00
(PPExtractor) g s (MEsg2Y1s s,g->Y1,s) 
                                              83           83        96(1)e-03
(PPExtractor) g c (MEcg2Y1c c,g->Y1,c) 
                                              78           78       90(10)e-03
(PPExtractor) g b (MEbg2Y1b b,g->Y1,b) 
                                              36           36        41(7)e-03
==============================================================================
