>>>>>>>>>>>>>>>>>>>>>>>>>>>>>>>>>>>>>>>>>>>>>>>>>>>>>>>>>>>>>>>>>>>>>>>>>>>>>>
>>>> Toolkit for HEP Event Generation - ThePEG f0c7c9e4efc0 (default) <<<<<<<<
>>>> Fri Nov 15 16:28:51 2019                                             <<<<
<<<<<<<<<<<<<<<<<<<<<<<<<<<<<<<<<<<<<<<<<<<<<<<<<<<<<<<<<<<<<<<<<<<<<<<<<<<<<<

>> Herwig b7689adb1ad6 (default) / ThePEG f0c7c9e4efc0 (default)

==============================================================================
Statistics for event handler 'EventHandler':
                                       generated    number of    Cross-section
                                          events     attempts             (nb)
==============================================================================
Total (from attempted events): including vetoed events          0.3288(9)e-03
==============================================================================
Total (from generated events):            30000        30000    0.3288(9)e-03
Events carry unit weights.
==============================================================================
Per matrix element breakdown:
MEbbarg2Y1bbar                                 1            1       10(10)e-09
MEcbarg2Y1cbar                                 1            1       10(10)e-09
MEsbarg2Y1sbar                                 8            8       90(30)e-09
MEubarg2Y1ubar                                13           13      0.14(4)e-06
MEdbarg2Y1dbar                                12           12      0.13(4)e-06
MEdubar2Y1W-                                  36           36      0.39(7)e-06
MEddbar2Y1g                                 2223         2223      24.4(5)e-06
MEddbar2Y1gamma                               11           11      0.12(4)e-06
MEddbar2Y1Z0                                  10           10      0.11(3)e-06
MEddbar2Y1Y1                                   0            0                0
MEdg2Y1d                                     153          153       1.7(1)e-06
MEuubar2Y1g                                 7363         7363      80.7(8)e-06
MEuubar2Y1gamma                              102          102       1.1(1)e-06
MEuubar2Y1Z0                                  38           38      0.42(7)e-06
MEuubar2Y1Y1                                   0            0                0
MEudbar2Y1W+                                 120          120       1.3(1)e-06
MEug2Y1u                                     658          658       7.2(3)e-06
MEscbar2Y1W-                                   0            0                0
MEssbar2Y1g                                   23           23      0.25(5)e-06
MEssbar2Y1gamma                                0            0                0
MEssbar2Y1Z0                                   0            0                0
MEssbar2Y1Y1                                   0            0                0
MEsg2Y1s                                       4            4       40(20)e-09
MEccbar2Y1g                                   15           15      0.16(4)e-06
MEccbar2Y1gamma                                0            0                0
MEccbar2Y1Z0                                   0            0                0
MEccbar2Y1Y1                                   0            0                0
MEcsbar2Y1W+                                   1            1       10(10)e-09
MEcg2Y1c                                       6            6       70(30)e-09
MEbbbar2Y1g                                    7            7       80(30)e-09
MEbbbar2Y1gamma                                0            0                0
MEbbbar2Y1Z0                                   0            0                0
MEbbbar2Y1H                                    0            0                0
MEbbbar2Y1Y1                                   0            0                0
MEbg2Y1b                                       2            2       20(20)e-09
MEbbbar2Y12XmXm                               28           28      0.31(6)e-06
MEbbbar2Y12ttbar                               2            2       20(20)e-09
MEbbbar2Y12bbbar                               7            7       80(30)e-09
MEbbbar2Y12ssbar                               4            4       40(20)e-09
MEbbbar2Y12ccbar                               6            6       70(30)e-09
MEbbbar2Y12ddbar                               5            5       50(20)e-09
MEbbbar2Y12uubar                               5            5       50(20)e-09
MEssbar2Y12XmXm                               95           95       1.0(1)e-06
MEssbar2Y12ttbar                               6            6       70(30)e-09
MEssbar2Y12bbbar                              22           22      0.24(5)e-06
MEssbar2Y12ssbar                              21           21      0.23(5)e-06
MEssbar2Y12ccbar                              22           22      0.24(5)e-06
MEssbar2Y12ddbar                              19           19      0.21(5)e-06
MEssbar2Y12uubar                              34           34      0.37(6)e-06
MEccbar2Y12XmXm                               60           60      0.66(8)e-06
MEccbar2Y12ttbar                               7            7       80(30)e-09
MEccbar2Y12bbbar                              16           16      0.18(4)e-06
MEccbar2Y12ssbar                               8            8       90(30)e-09
MEccbar2Y12ccbar                              19           19      0.21(5)e-06
MEccbar2Y12ddbar                              13           13      0.14(4)e-06
MEccbar2Y12uubar                              10           10      0.11(3)e-06
MEddbar2Y12XmXm                             2760         2760      30.2(6)e-06
MEddbar2Y12ttbar                             355          355       3.9(2)e-06
MEddbar2Y12bbbar                             371          371       4.1(2)e-06
MEddbar2Y12ssbar                             493          493       5.4(2)e-06
MEddbar2Y12ccbar                             461          461       5.1(2)e-06
MEddbar2Y12ddbar                             452          452       5.0(2)e-06
MEddbar2Y12uubar                             484          484       5.3(2)e-06
MEuubar2Y12XmXm                             7136         7136      78.2(8)e-06
MEuubar2Y12ttbar                             864          864       9.5(3)e-06
MEuubar2Y12bbbar                            1133         1133      12.4(4)e-06
MEuubar2Y12ssbar                            1101         1101      12.1(4)e-06
MEuubar2Y12ccbar                            1073         1073      11.8(4)e-06
MEuubar2Y12ddbar                            1036         1036      11.4(3)e-06
MEuubar2Y12uubar                            1065         1065      11.7(4)e-06
==============================================================================
Per parton extractor breakdown:
PPExtractor                                30000        30000    0.3288(9)e-03
==============================================================================
Per incoming partons breakdown:
d dbar                                      3726         3726      40.8(6)e-06
d ubar                                        17           17      0.19(5)e-06
d g                                           63           63      0.69(9)e-06
dbar d                                      3894         3894      42.7(6)e-06
dbar u                                        63           63      0.69(9)e-06
dbar g                                         8            8       90(30)e-09
ubar d                                        19           19      0.21(5)e-06
ubar u                                     10584        10584     0.116(1)e-03
ubar g                                         6            6       70(30)e-09
u dbar                                        57           57      0.62(8)e-06
u ubar                                     10327        10327     0.113(1)e-03
u g                                          317          317       3.5(2)e-06
c cbar                                        82           82       0.9(1)e-06
c sbar                                         1            1       10(10)e-09
c g                                            3            3       30(20)e-09
cbar c                                        66           66      0.72(9)e-06
cbar s                                         0            0                0
cbar g                                         0            0                0
sbar c                                         0            0                0
sbar s                                       122          122       1.3(1)e-06
sbar g                                         5            5       50(20)e-09
s cbar                                         0            0                0
s sbar                                       120          120       1.3(1)e-06
s g                                            0            0                0
b bbar                                        34           34      0.37(6)e-06
b g                                            0            0                0
bbar b                                        30           30      0.33(6)e-06
bbar g                                         1            1       10(10)e-09
g d                                           90           90      0.99(1)e-06
g dbar                                         4            4       40(20)e-09
g ubar                                         7            7       80(30)e-09
g u                                          341          341       3.7(2)e-06
g c                                            3            3       30(20)e-09
g cbar                                         1            1       10(10)e-09
g sbar                                         3            3       30(20)e-09
g s                                            4            4       40(20)e-09
g b                                            2            2       20(20)e-09
g bbar                                         0            0                0
==============================================================================
Detailed breakdown:
(PPExtractor) bbar b (MEbbbar2Y1g b,bbar->Y1,g) 
                                               2            2       20(20)e-09
(PPExtractor) bbar b (MEbbbar2Y1gamma b,bbar->Y1,gamma) 
                                               0            0                0
(PPExtractor) bbar b (MEbbbar2Y1Z0 b,bbar->Y1,Z0) 
                                               0            0                0
(PPExtractor) bbar b (MEbbbar2Y1H b,bbar->Y1,H) 
                                               0            0                0
(PPExtractor) bbar b (MEbbbar2Y1Y1 b,bbar->Y1,Y1) 
                                               0            0                0
(PPExtractor) bbar b (MEbbbar2Y12XmXm b,bbar->Xm,Xm) 
                                              15           15      0.16(4)e-06
(PPExtractor) bbar b (MEbbbar2Y12ttbar b,bbar->t,tbar) 
                                               2            2       20(20)e-09
(PPExtractor) bbar b (MEbbbar2Y12bbbar b,bbar->b,bbar) 
                                               2            2       20(20)e-09
(PPExtractor) bbar b (MEbbbar2Y12ssbar b,bbar->s,sbar) 
                                               1            1       10(10)e-09
(PPExtractor) bbar b (MEbbbar2Y12ccbar b,bbar->c,cbar) 
                                               3            3       30(20)e-09
(PPExtractor) bbar b (MEbbbar2Y12ddbar b,bbar->d,dbar) 
                                               2            2       20(20)e-09
(PPExtractor) bbar b (MEbbbar2Y12uubar b,bbar->u,ubar) 
                                               3            3       30(20)e-09
(PPExtractor) bbar g (MEbbarg2Y1bbar bbar,g->Y1,bbar) 
                                               1            1       10(10)e-09
(PPExtractor) cbar s (MEscbar2Y1W- s,cbar->Y1,W-) 
                                               0            0                0
(PPExtractor) cbar c (MEccbar2Y1g c,cbar->Y1,g) 
                                              10           10      0.11(3)e-06
(PPExtractor) cbar c (MEccbar2Y1gamma c,cbar->Y1,gamma) 
                                               0            0                0
(PPExtractor) cbar c (MEccbar2Y1Z0 c,cbar->Y1,Z0) 
                                               0            0                0
(PPExtractor) cbar c (MEccbar2Y1Y1 c,cbar->Y1,Y1) 
                                               0            0                0
(PPExtractor) cbar c (MEccbar2Y12XmXm c,cbar->Xm,Xm) 
                                              24           24      0.26(5)e-06
(PPExtractor) cbar c (MEccbar2Y12ttbar c,cbar->t,tbar) 
                                               2            2       20(20)e-09
(PPExtractor) cbar c (MEccbar2Y12bbbar c,cbar->b,bbar) 
                                               7            7       80(30)e-09
(PPExtractor) cbar c (MEccbar2Y12ssbar c,cbar->s,sbar) 
                                               5            5       50(20)e-09
(PPExtractor) cbar c (MEccbar2Y12ccbar c,cbar->c,cbar) 
                                               8            8       90(30)e-09
(PPExtractor) cbar c (MEccbar2Y12ddbar c,cbar->d,dbar) 
                                               6            6       70(30)e-09
(PPExtractor) cbar c (MEccbar2Y12uubar c,cbar->u,ubar) 
                                               4            4       40(20)e-09
(PPExtractor) cbar g (MEcbarg2Y1cbar cbar,g->Y1,cbar) 
                                               0            0                0
(PPExtractor) sbar s (MEssbar2Y1g s,sbar->Y1,g) 
                                               8            8       90(30)e-09
(PPExtractor) sbar s (MEssbar2Y1gamma s,sbar->Y1,gamma) 
                                               0            0                0
(PPExtractor) sbar s (MEssbar2Y1Z0 s,sbar->Y1,Z0) 
                                               0            0                0
(PPExtractor) sbar s (MEssbar2Y1Y1 s,sbar->Y1,Y1) 
                                               0            0                0
(PPExtractor) sbar s (MEssbar2Y12XmXm s,sbar->Xm,Xm) 
                                              48           48      0.53(8)e-06
(PPExtractor) sbar s (MEssbar2Y12ttbar s,sbar->t,tbar) 
                                               3            3       30(20)e-09
(PPExtractor) sbar s (MEssbar2Y12bbbar s,sbar->b,bbar) 
                                              13           13      0.14(4)e-06
(PPExtractor) sbar s (MEssbar2Y12ssbar s,sbar->s,sbar) 
                                              12           12      0.13(4)e-06
(PPExtractor) sbar s (MEssbar2Y12ccbar s,sbar->c,cbar) 
                                              11           11      0.12(4)e-06
(PPExtractor) sbar s (MEssbar2Y12ddbar s,sbar->d,dbar) 
                                              12           12      0.13(4)e-06
(PPExtractor) sbar s (MEssbar2Y12uubar s,sbar->u,ubar) 
                                              15           15      0.16(4)e-06
(PPExtractor) sbar c (MEcsbar2Y1W+ c,sbar->Y1,W+) 
                                               0            0                0
(PPExtractor) sbar g (MEsbarg2Y1sbar sbar,g->Y1,sbar) 
                                               5            5       50(20)e-09
(PPExtractor) ubar d (MEdubar2Y1W- d,ubar->Y1,W-) 
                                              19           19      0.21(5)e-06
(PPExtractor) ubar u (MEuubar2Y1g u,ubar->Y1,g) 
                                            3756         3756      41.2(6)e-06
(PPExtractor) ubar u (MEuubar2Y1gamma u,ubar->Y1,gamma) 
                                              36           36      0.39(7)e-06
(PPExtractor) ubar u (MEuubar2Y1Z0 u,ubar->Y1,Z0) 
                                              22           22      0.24(5)e-06
(PPExtractor) ubar u (MEuubar2Y1Y1 u,ubar->Y1,Y1) 
                                               0            0                0
(PPExtractor) ubar u (MEuubar2Y12XmXm u,ubar->Xm,Xm) 
                                            3569         3569      39.1(6)e-06
(PPExtractor) ubar u (MEuubar2Y12ttbar u,ubar->t,tbar) 
                                             433          433       4.7(2)e-06
(PPExtractor) ubar u (MEuubar2Y12bbbar u,ubar->b,bbar) 
                                             574          574       6.3(3)e-06
(PPExtractor) ubar u (MEuubar2Y12ssbar u,ubar->s,sbar) 
                                             559          559       6.1(3)e-06
(PPExtractor) ubar u (MEuubar2Y12ccbar u,ubar->c,cbar) 
                                             577          577       6.3(3)e-06
(PPExtractor) ubar u (MEuubar2Y12ddbar u,ubar->d,dbar) 
                                             512          512       5.6(2)e-06
(PPExtractor) ubar u (MEuubar2Y12uubar u,ubar->u,ubar) 
                                             546          546       6.0(3)e-06
(PPExtractor) ubar g (MEubarg2Y1ubar ubar,g->Y1,ubar) 
                                               6            6       70(30)e-09
(PPExtractor) dbar d (MEddbar2Y1g d,dbar->Y1,g) 
                                            1120         1120      12.3(4)e-06
(PPExtractor) dbar d (MEddbar2Y1gamma d,dbar->Y1,gamma) 
                                               4            4       40(20)e-09
(PPExtractor) dbar d (MEddbar2Y1Z0 d,dbar->Y1,Z0) 
                                               4            4       40(20)e-09
(PPExtractor) dbar d (MEddbar2Y1Y1 d,dbar->Y1,Y1) 
                                               0            0                0
(PPExtractor) dbar d (MEddbar2Y12XmXm d,dbar->Xm,Xm) 
                                            1379         1379      15.1(4)e-06
(PPExtractor) dbar d (MEddbar2Y12ttbar d,dbar->t,tbar) 
                                             187          187       2.0(1)e-06
(PPExtractor) dbar d (MEddbar2Y12bbbar d,dbar->b,bbar) 
                                             230          230       2.5(2)e-06
(PPExtractor) dbar d (MEddbar2Y12ssbar d,dbar->s,sbar) 
                                             252          252       2.8(2)e-06
(PPExtractor) dbar d (MEddbar2Y12ccbar d,dbar->c,cbar) 
                                             234          234       2.6(2)e-06
(PPExtractor) dbar d (MEddbar2Y12ddbar d,dbar->d,dbar) 
                                             223          223       2.4(2)e-06
(PPExtractor) dbar d (MEddbar2Y12uubar d,dbar->u,ubar) 
                                             261          261       2.9(2)e-06
(PPExtractor) dbar u (MEudbar2Y1W+ u,dbar->Y1,W+) 
                                              63           63      0.69(9)e-06
(PPExtractor) dbar g (MEdbarg2Y1dbar dbar,g->Y1,dbar) 
                                               8            8       90(30)e-09
(PPExtractor) d ubar (MEdubar2Y1W- d,ubar->Y1,W-) 
                                              17           17      0.19(5)e-06
(PPExtractor) d dbar (MEddbar2Y1g d,dbar->Y1,g) 
                                            1103         1103      12.1(4)e-06
(PPExtractor) d dbar (MEddbar2Y1gamma d,dbar->Y1,gamma) 
                                               7            7       80(30)e-09
(PPExtractor) d dbar (MEddbar2Y1Z0 d,dbar->Y1,Z0) 
                                               6            6       70(30)e-09
(PPExtractor) d dbar (MEddbar2Y1Y1 d,dbar->Y1,Y1) 
                                               0            0                0
(PPExtractor) d dbar (MEddbar2Y12XmXm d,dbar->Xm,Xm) 
                                            1381         1381      15.1(4)e-06
(PPExtractor) d dbar (MEddbar2Y12ttbar d,dbar->t,tbar) 
                                             168          168       1.8(1)e-06
(PPExtractor) d dbar (MEddbar2Y12bbbar d,dbar->b,bbar) 
                                             141          141       1.5(1)e-06
(PPExtractor) d dbar (MEddbar2Y12ssbar d,dbar->s,sbar) 
                                             241          241       2.6(2)e-06
(PPExtractor) d dbar (MEddbar2Y12ccbar d,dbar->c,cbar) 
                                             227          227       2.5(2)e-06
(PPExtractor) d dbar (MEddbar2Y12ddbar d,dbar->d,dbar) 
                                             229          229       2.5(2)e-06
(PPExtractor) d dbar (MEddbar2Y12uubar d,dbar->u,ubar) 
                                             223          223       2.4(2)e-06
(PPExtractor) d g (MEdg2Y1d d,g->Y1,d) 
                                              63           63      0.69(9)e-06
(PPExtractor) u ubar (MEuubar2Y1g u,ubar->Y1,g) 
                                            3607         3607      39.5(6)e-06
(PPExtractor) u ubar (MEuubar2Y1gamma u,ubar->Y1,gamma) 
                                              66           66      0.72(9)e-06
(PPExtractor) u ubar (MEuubar2Y1Z0 u,ubar->Y1,Z0) 
                                              16           16      0.18(4)e-06
(PPExtractor) u ubar (MEuubar2Y1Y1 u,ubar->Y1,Y1) 
                                               0            0                0
(PPExtractor) u ubar (MEuubar2Y12XmXm u,ubar->Xm,Xm) 
                                            3567         3567      39.1(6)e-06
(PPExtractor) u ubar (MEuubar2Y12ttbar u,ubar->t,tbar) 
                                             431          431       4.7(2)e-06
(PPExtractor) u ubar (MEuubar2Y12bbbar u,ubar->b,bbar) 
                                             559          559       6.1(3)e-06
(PPExtractor) u ubar (MEuubar2Y12ssbar u,ubar->s,sbar) 
                                             542          542       5.9(3)e-06
(PPExtractor) u ubar (MEuubar2Y12ccbar u,ubar->c,cbar) 
                                             496          496       5.4(2)e-06
(PPExtractor) u ubar (MEuubar2Y12ddbar u,ubar->d,dbar) 
                                             524          524       5.7(2)e-06
(PPExtractor) u ubar (MEuubar2Y12uubar u,ubar->u,ubar) 
                                             519          519       5.7(2)e-06
(PPExtractor) u dbar (MEudbar2Y1W+ u,dbar->Y1,W+) 
                                              57           57      0.62(8)e-06
(PPExtractor) u g (MEug2Y1u u,g->Y1,u) 
                                             317          317       3.5(2)e-06
(PPExtractor) s cbar (MEscbar2Y1W- s,cbar->Y1,W-) 
                                               0            0                0
(PPExtractor) s sbar (MEssbar2Y1g s,sbar->Y1,g) 
                                              15           15      0.16(4)e-06
(PPExtractor) s sbar (MEssbar2Y1gamma s,sbar->Y1,gamma) 
                                               0            0                0
(PPExtractor) s sbar (MEssbar2Y1Z0 s,sbar->Y1,Z0) 
                                               0            0                0
(PPExtractor) s sbar (MEssbar2Y1Y1 s,sbar->Y1,Y1) 
                                               0            0                0
(PPExtractor) s sbar (MEssbar2Y12XmXm s,sbar->Xm,Xm) 
                                              47           47      0.52(8)e-06
(PPExtractor) s sbar (MEssbar2Y12ttbar s,sbar->t,tbar) 
                                               3            3       30(20)e-09
(PPExtractor) s sbar (MEssbar2Y12bbbar s,sbar->b,bbar) 
                                               9            9        99(3)e-09
(PPExtractor) s sbar (MEssbar2Y12ssbar s,sbar->s,sbar) 
                                               9            9        99(3)e-09
(PPExtractor) s sbar (MEssbar2Y12ccbar s,sbar->c,cbar) 
                                              11           11      0.12(4)e-06
(PPExtractor) s sbar (MEssbar2Y12ddbar s,sbar->d,dbar) 
                                               7            7       80(30)e-09
(PPExtractor) s sbar (MEssbar2Y12uubar s,sbar->u,ubar) 
                                              19           19      0.21(5)e-06
(PPExtractor) s g (MEsg2Y1s s,g->Y1,s) 
                                               0            0                0
(PPExtractor) c cbar (MEccbar2Y1g c,cbar->Y1,g) 
                                               5            5       50(20)e-09
(PPExtractor) c cbar (MEccbar2Y1gamma c,cbar->Y1,gamma) 
                                               0            0                0
(PPExtractor) c cbar (MEccbar2Y1Z0 c,cbar->Y1,Z0) 
                                               0            0                0
(PPExtractor) c cbar (MEccbar2Y1Y1 c,cbar->Y1,Y1) 
                                               0            0                0
(PPExtractor) c cbar (MEccbar2Y12XmXm c,cbar->Xm,Xm) 
                                              36           36      0.39(7)e-06
(PPExtractor) c cbar (MEccbar2Y12ttbar c,cbar->t,tbar) 
                                               5            5       50(20)e-09
(PPExtractor) c cbar (MEccbar2Y12bbbar c,cbar->b,bbar) 
                                               9            9        99(3)e-09
(PPExtractor) c cbar (MEccbar2Y12ssbar c,cbar->s,sbar) 
                                               3            3       30(20)e-09
(PPExtractor) c cbar (MEccbar2Y12ccbar c,cbar->c,cbar) 
                                              11           11      0.12(4)e-06
(PPExtractor) c cbar (MEccbar2Y12ddbar c,cbar->d,dbar) 
                                               7            7       80(30)e-09
(PPExtractor) c cbar (MEccbar2Y12uubar c,cbar->u,ubar) 
                                               6            6       70(30)e-09
(PPExtractor) c sbar (MEcsbar2Y1W+ c,sbar->Y1,W+) 
                                               1            1       10(10)e-09
(PPExtractor) c g (MEcg2Y1c c,g->Y1,c) 
                                               3            3       30(20)e-09
(PPExtractor) b bbar (MEbbbar2Y1g b,bbar->Y1,g) 
                                               5            5       50(20)e-09
(PPExtractor) b bbar (MEbbbar2Y1gamma b,bbar->Y1,gamma) 
                                               0            0                0
(PPExtractor) b bbar (MEbbbar2Y1Z0 b,bbar->Y1,Z0) 
                                               0            0                0
(PPExtractor) b bbar (MEbbbar2Y1H b,bbar->Y1,H) 
                                               0            0                0
(PPExtractor) b bbar (MEbbbar2Y1Y1 b,bbar->Y1,Y1) 
                                               0            0                0
(PPExtractor) b bbar (MEbbbar2Y12XmXm b,bbar->Xm,Xm) 
                                              13           13      0.14(4)e-06
(PPExtractor) b bbar (MEbbbar2Y12ttbar b,bbar->t,tbar) 
                                               0            0                0
(PPExtractor) b bbar (MEbbbar2Y12bbbar b,bbar->b,bbar) 
                                               5            5       50(20)e-09
(PPExtractor) b bbar (MEbbbar2Y12ssbar b,bbar->s,sbar) 
                                               3            3       30(20)e-09
(PPExtractor) b bbar (MEbbbar2Y12ccbar b,bbar->c,cbar) 
                                               3            3       30(20)e-09
(PPExtractor) b bbar (MEbbbar2Y12ddbar b,bbar->d,dbar) 
                                               3            3       30(20)e-09
(PPExtractor) b bbar (MEbbbar2Y12uubar b,bbar->u,ubar) 
                                               2            2       20(20)e-09
(PPExtractor) b g (MEbg2Y1b b,g->Y1,b) 
                                               0            0                0
(PPExtractor) g bbar (MEbbarg2Y1bbar bbar,g->Y1,bbar) 
                                               0            0                0
(PPExtractor) g cbar (MEcbarg2Y1cbar cbar,g->Y1,cbar) 
                                               1            1       10(10)e-09
(PPExtractor) g sbar (MEsbarg2Y1sbar sbar,g->Y1,sbar) 
                                               3            3       30(20)e-09
(PPExtractor) g ubar (MEubarg2Y1ubar ubar,g->Y1,ubar) 
                                               7            7       80(30)e-09
(PPExtractor) g dbar (MEdbarg2Y1dbar dbar,g->Y1,dbar) 
                                               4            4       40(20)e-09
(PPExtractor) g d (MEdg2Y1d d,g->Y1,d) 
                                              90           90      0.99(1)e-06
(PPExtractor) g u (MEug2Y1u u,g->Y1,u) 
                                             341          341       3.7(2)e-06
(PPExtractor) g s (MEsg2Y1s s,g->Y1,s) 
                                               4            4       40(20)e-09
(PPExtractor) g c (MEcg2Y1c c,g->Y1,c) 
                                               3            3       30(20)e-09
(PPExtractor) g b (MEbg2Y1b b,g->Y1,b) 
                                               2            2       20(20)e-09
==============================================================================
