>>>>>>>>>>>>>>>>>>>>>>>>>>>>>>>>>>>>>>>>>>>>>>>>>>>>>>>>>>>>>>>>>>>>>>>>>>>>>>
>>>> Toolkit for HEP Event Generation - ThePEG f0c7c9e4efc0 (default) <<<<<<<<
>>>> Fri Nov 15 16:30:03 2019                                             <<<<
<<<<<<<<<<<<<<<<<<<<<<<<<<<<<<<<<<<<<<<<<<<<<<<<<<<<<<<<<<<<<<<<<<<<<<<<<<<<<<

>> Herwig b7689adb1ad6 (default) / ThePEG f0c7c9e4efc0 (default)

==============================================================================
Statistics for event handler 'EventHandler':
                                       generated    number of    Cross-section
                                          events     attempts             (nb)
==============================================================================
Total (from attempted events): including vetoed events           0.554(2)e-03
==============================================================================
Total (from generated events):            30000        30000     0.554(2)e-03
Events carry unit weights.
==============================================================================
Per matrix element breakdown:
MEbbarg2Y1bbar                                 5            5       90(40)e-09
MEcbarg2Y1cbar                                 6            6      0.11(5)e-06
MEsbarg2Y1sbar                                 6            6      0.11(5)e-06
MEubarg2Y1ubar                                26           26      0.48(9)e-06
MEdbarg2Y1dbar                                22           22      0.41(9)e-06
MEdubar2Y1W-                                  30           30       0.6(1)e-06
MEddbar2Y1g                                 3101         3101        57(1)e-06
MEddbar2Y1gamma                               16           16      0.30(7)e-06
MEddbar2Y1Z0                                  15           15      0.28(7)e-06
MEddbar2Y1Y1                                   0            0                0
MEdg2Y1d                                     243          243       4.5(3)e-06
MEuubar2Y1g                                 8719         8719     0.161(2)e-03
MEuubar2Y1gamma                              124          124       2.3(2)e-06
MEuubar2Y1Z0                                  38           38       0.7(1)e-06
MEuubar2Y1Y1                                   0            0                0
MEudbar2Y1W+                                 146          146       2.7(2)e-06
MEug2Y1u                                     845          845      15.6(5)e-06
MEscbar2Y1W-                                   0            0                0
MEssbar2Y1g                                   43           43       0.8(1)e-06
MEssbar2Y1gamma                                0            0                0
MEssbar2Y1Z0                                   0            0                0
MEssbar2Y1Y1                                   0            0                0
MEsg2Y1s                                       9            9      0.17(6)e-06
MEccbar2Y1g                                   36           36       0.7(1)e-06
MEccbar2Y1gamma                                0            0                0
MEccbar2Y1Z0                                   0            0                0
MEccbar2Y1Y1                                   0            0                0
MEcsbar2Y1W+                                   1            1       20(20)e-09
MEcg2Y1c                                      10           10      0.18(6)e-06
MEbbbar2Y1g                                    3            3       60(30)e-09
MEbbbar2Y1gamma                                0            0                0
MEbbbar2Y1Z0                                   0            0                0
MEbbbar2Y1H                                    0            0                0
MEbbbar2Y1Y1                                   0            0                0
MEbg2Y1b                                       5            5       90(40)e-09
MEbbbar2Y12XmXm                                6            6      0.11(5)e-06
MEbbbar2Y12ttbar                               1            1       20(20)e-09
MEbbbar2Y12bbbar                               4            4       70(40)e-09
MEbbbar2Y12ssbar                               6            6      0.11(5)e-06
MEbbbar2Y12ccbar                               7            7      0.13(5)e-06
MEbbbar2Y12ddbar                               6            6      0.11(5)e-06
MEbbbar2Y12uubar                               6            6      0.11(5)e-06
MEssbar2Y12XmXm                               24           24      0.44(9)e-06
MEssbar2Y12ttbar                              15           15      0.28(7)e-06
MEssbar2Y12bbbar                              27           27       0.5(1)e-06
MEssbar2Y12ssbar                              14           14      0.26(7)e-06
MEssbar2Y12ccbar                              19           19      0.35(8)e-06
MEssbar2Y12ddbar                              11           11      0.20(6)e-06
MEssbar2Y12uubar                              21           21      0.39(8)e-06
MEccbar2Y12XmXm                               31           31       0.6(1)e-06
MEccbar2Y12ttbar                               3            3       60(30)e-09
MEccbar2Y12bbbar                              17           17      0.31(8)e-06
MEccbar2Y12ssbar                              16           16      0.30(7)e-06
MEccbar2Y12ccbar                              17           17      0.31(8)e-06
MEccbar2Y12ddbar                              16           16      0.30(7)e-06
MEccbar2Y12uubar                              16           16      0.30(7)e-06
MEddbar2Y12XmXm                             1591         1591      29.4(7)e-06
MEddbar2Y12ttbar                             464          464       8.6(4)e-06
MEddbar2Y12bbbar                             536          536       9.9(4)e-06
MEddbar2Y12ssbar                             517          517       9.5(4)e-06
MEddbar2Y12ccbar                             494          494       9.1(4)e-06
MEddbar2Y12ddbar                             528          528       9.7(4)e-06
MEddbar2Y12uubar                             489          489       9.0(4)e-06
MEuubar2Y12XmXm                             4318         4318        80(1)e-06
MEuubar2Y12ttbar                            1089         1089      20.1(6)e-06
MEuubar2Y12bbbar                            1219         1219      22.5(6)e-06
MEuubar2Y12ssbar                            1282         1282      23.7(6)e-06
MEuubar2Y12ccbar                            1207         1207      22.3(6)e-06
MEuubar2Y12ddbar                            1268         1268      23.4(6)e-06
MEuubar2Y12uubar                            1266         1266      23.4(6)e-06
==============================================================================
Per parton extractor breakdown:
PPExtractor                                30000        30000     0.554(2)e-03
==============================================================================
Per incoming partons breakdown:
d dbar                                      3886         3886        72(1)e-06
d ubar                                        16           16      0.30(7)e-06
d g                                          137          137       2.5(2)e-06
dbar d                                      3865         3865        71(1)e-06
dbar u                                        74           74       1.4(2)e-06
dbar g                                        11           11      0.20(6)e-06
ubar d                                        14           14      0.26(7)e-06
ubar u                                     10167        10167     0.188(2)e-03
ubar g                                        19           19      0.35(8)e-06
u dbar                                        72           72       1.3(2)e-06
u ubar                                     10363        10363     0.191(2)e-03
u g                                          410          410       7.6(4)e-06
c cbar                                        79           79       1.5(2)e-06
c sbar                                         0            0                0
c g                                            6            6      0.11(5)e-06
cbar c                                        73           73       1.3(2)e-06
cbar s                                         0            0                0
cbar g                                         1            1       20(20)e-09
sbar c                                         1            1       20(20)e-09
sbar s                                        85           85       1.6(2)e-06
sbar g                                         4            4       70(40)e-09
s cbar                                         0            0                0
s sbar                                        89           89       1.6(2)e-06
s g                                            5            5       90(40)e-09
b bbar                                        16           16      0.30(7)e-06
b g                                            1            1       20(20)e-09
bbar b                                        23           23      0.42(9)e-06
bbar g                                         3            3       60(30)e-09
g d                                          106          106       2.0(2)e-06
g dbar                                        11           11      0.20(6)e-06
g ubar                                         7            7      0.13(5)e-06
g u                                          435          435       8.0(4)e-06
g c                                            4            4       70(40)e-09
g cbar                                         5            5       90(40)e-09
g sbar                                         2            2       40(30)e-09
g s                                            4            4       70(40)e-09
g b                                            4            4       70(40)e-09
g bbar                                         2            2       40(30)e-09
==============================================================================
Detailed breakdown:
(PPExtractor) bbar b (MEbbbar2Y1g b,bbar->Y1,g) 
                                               3            3       60(30)e-09
(PPExtractor) bbar b (MEbbbar2Y1gamma b,bbar->Y1,gamma) 
                                               0            0                0
(PPExtractor) bbar b (MEbbbar2Y1Z0 b,bbar->Y1,Z0) 
                                               0            0                0
(PPExtractor) bbar b (MEbbbar2Y1H b,bbar->Y1,H) 
                                               0            0                0
(PPExtractor) bbar b (MEbbbar2Y1Y1 b,bbar->Y1,Y1) 
                                               0            0                0
(PPExtractor) bbar b (MEbbbar2Y12XmXm b,bbar->Xm,Xm) 
                                               3            3       60(30)e-09
(PPExtractor) bbar b (MEbbbar2Y12ttbar b,bbar->t,tbar) 
                                               1            1       20(20)e-09
(PPExtractor) bbar b (MEbbbar2Y12bbbar b,bbar->b,bbar) 
                                               0            0                0
(PPExtractor) bbar b (MEbbbar2Y12ssbar b,bbar->s,sbar) 
                                               4            4       70(40)e-09
(PPExtractor) bbar b (MEbbbar2Y12ccbar b,bbar->c,cbar) 
                                               5            5       90(40)e-09
(PPExtractor) bbar b (MEbbbar2Y12ddbar b,bbar->d,dbar) 
                                               4            4       70(40)e-09
(PPExtractor) bbar b (MEbbbar2Y12uubar b,bbar->u,ubar) 
                                               3            3       60(30)e-09
(PPExtractor) bbar g (MEbbarg2Y1bbar bbar,g->Y1,bbar) 
                                               3            3       60(30)e-09
(PPExtractor) cbar s (MEscbar2Y1W- s,cbar->Y1,W-) 
                                               0            0                0
(PPExtractor) cbar c (MEccbar2Y1g c,cbar->Y1,g) 
                                              19           19      0.35(8)e-06
(PPExtractor) cbar c (MEccbar2Y1gamma c,cbar->Y1,gamma) 
                                               0            0                0
(PPExtractor) cbar c (MEccbar2Y1Z0 c,cbar->Y1,Z0) 
                                               0            0                0
(PPExtractor) cbar c (MEccbar2Y1Y1 c,cbar->Y1,Y1) 
                                               0            0                0
(PPExtractor) cbar c (MEccbar2Y12XmXm c,cbar->Xm,Xm) 
                                              14           14      0.26(7)e-06
(PPExtractor) cbar c (MEccbar2Y12ttbar c,cbar->t,tbar) 
                                               1            1       20(20)e-09
(PPExtractor) cbar c (MEccbar2Y12bbbar c,cbar->b,bbar) 
                                               6            6      0.11(5)e-06
(PPExtractor) cbar c (MEccbar2Y12ssbar c,cbar->s,sbar) 
                                              11           11      0.20(6)e-06
(PPExtractor) cbar c (MEccbar2Y12ccbar c,cbar->c,cbar) 
                                               9            9      0.17(6)e-06
(PPExtractor) cbar c (MEccbar2Y12ddbar c,cbar->d,dbar) 
                                               6            6      0.11(5)e-06
(PPExtractor) cbar c (MEccbar2Y12uubar c,cbar->u,ubar) 
                                               7            7      0.13(5)e-06
(PPExtractor) cbar g (MEcbarg2Y1cbar cbar,g->Y1,cbar) 
                                               1            1       20(20)e-09
(PPExtractor) sbar s (MEssbar2Y1g s,sbar->Y1,g) 
                                              22           22      0.41(9)e-06
(PPExtractor) sbar s (MEssbar2Y1gamma s,sbar->Y1,gamma) 
                                               0            0                0
(PPExtractor) sbar s (MEssbar2Y1Z0 s,sbar->Y1,Z0) 
                                               0            0                0
(PPExtractor) sbar s (MEssbar2Y1Y1 s,sbar->Y1,Y1) 
                                               0            0                0
(PPExtractor) sbar s (MEssbar2Y12XmXm s,sbar->Xm,Xm) 
                                              11           11      0.20(6)e-06
(PPExtractor) sbar s (MEssbar2Y12ttbar s,sbar->t,tbar) 
                                               7            7      0.13(5)e-06
(PPExtractor) sbar s (MEssbar2Y12bbbar s,sbar->b,bbar) 
                                              12           12      0.22(6)e-06
(PPExtractor) sbar s (MEssbar2Y12ssbar s,sbar->s,sbar) 
                                               6            6      0.11(5)e-06
(PPExtractor) sbar s (MEssbar2Y12ccbar s,sbar->c,cbar) 
                                              12           12      0.22(6)e-06
(PPExtractor) sbar s (MEssbar2Y12ddbar s,sbar->d,dbar) 
                                               5            5       90(40)e-09
(PPExtractor) sbar s (MEssbar2Y12uubar s,sbar->u,ubar) 
                                              10           10      0.18(6)e-06
(PPExtractor) sbar c (MEcsbar2Y1W+ c,sbar->Y1,W+) 
                                               1            1       20(20)e-09
(PPExtractor) sbar g (MEsbarg2Y1sbar sbar,g->Y1,sbar) 
                                               4            4       70(40)e-09
(PPExtractor) ubar d (MEdubar2Y1W- d,ubar->Y1,W-) 
                                              14           14      0.26(7)e-06
(PPExtractor) ubar u (MEuubar2Y1g u,ubar->Y1,g) 
                                            4251         4251        78(1)e-06
(PPExtractor) ubar u (MEuubar2Y1gamma u,ubar->Y1,gamma) 
                                              60           60       1.1(1)e-06
(PPExtractor) ubar u (MEuubar2Y1Z0 u,ubar->Y1,Z0) 
                                              17           17      0.31(8)e-06
(PPExtractor) ubar u (MEuubar2Y1Y1 u,ubar->Y1,Y1) 
                                               0            0                0
(PPExtractor) ubar u (MEuubar2Y12XmXm u,ubar->Xm,Xm) 
                                            2188         2188      40.4(8)e-06
(PPExtractor) ubar u (MEuubar2Y12ttbar u,ubar->t,tbar) 
                                             540          540      9.96(4)e-06
(PPExtractor) ubar u (MEuubar2Y12bbbar u,ubar->b,bbar) 
                                             620          620      11.4(5)e-06
(PPExtractor) ubar u (MEuubar2Y12ssbar u,ubar->s,sbar) 
                                             633          633      11.7(5)e-06
(PPExtractor) ubar u (MEuubar2Y12ccbar u,ubar->c,cbar) 
                                             600          600      11.1(4)e-06
(PPExtractor) ubar u (MEuubar2Y12ddbar u,ubar->d,dbar) 
                                             634          634      11.7(5)e-06
(PPExtractor) ubar u (MEuubar2Y12uubar u,ubar->u,ubar) 
                                             624          624      11.5(5)e-06
(PPExtractor) ubar g (MEubarg2Y1ubar ubar,g->Y1,ubar) 
                                              19           19      0.35(8)e-06
(PPExtractor) dbar d (MEddbar2Y1g d,dbar->Y1,g) 
                                            1539         1539      28.4(7)e-06
(PPExtractor) dbar d (MEddbar2Y1gamma d,dbar->Y1,gamma) 
                                               6            6      0.11(5)e-06
(PPExtractor) dbar d (MEddbar2Y1Z0 d,dbar->Y1,Z0) 
                                               7            7      0.13(5)e-06
(PPExtractor) dbar d (MEddbar2Y1Y1 d,dbar->Y1,Y1) 
                                               0            0                0
(PPExtractor) dbar d (MEddbar2Y12XmXm d,dbar->Xm,Xm) 
                                             781          781      14.4(5)e-06
(PPExtractor) dbar d (MEddbar2Y12ttbar d,dbar->t,tbar) 
                                             230          230       4.2(3)e-06
(PPExtractor) dbar d (MEddbar2Y12bbbar d,dbar->b,bbar) 
                                             284          284       5.2(3)e-06
(PPExtractor) dbar d (MEddbar2Y12ssbar d,dbar->s,sbar) 
                                             271          271       5.0(3)e-06
(PPExtractor) dbar d (MEddbar2Y12ccbar d,dbar->c,cbar) 
                                             247          247       4.6(3)e-06
(PPExtractor) dbar d (MEddbar2Y12ddbar d,dbar->d,dbar) 
                                             257          257       4.7(3)e-06
(PPExtractor) dbar d (MEddbar2Y12uubar d,dbar->u,ubar) 
                                             243          243       4.5(3)e-06
(PPExtractor) dbar u (MEudbar2Y1W+ u,dbar->Y1,W+) 
                                              74           74       1.4(2)e-06
(PPExtractor) dbar g (MEdbarg2Y1dbar dbar,g->Y1,dbar) 
                                              11           11      0.20(6)e-06
(PPExtractor) d ubar (MEdubar2Y1W- d,ubar->Y1,W-) 
                                              16           16      0.30(7)e-06
(PPExtractor) d dbar (MEddbar2Y1g d,dbar->Y1,g) 
                                            1562         1562      28.8(7)e-06
(PPExtractor) d dbar (MEddbar2Y1gamma d,dbar->Y1,gamma) 
                                              10           10      0.18(6)e-06
(PPExtractor) d dbar (MEddbar2Y1Z0 d,dbar->Y1,Z0) 
                                               8            8      0.15(5)e-06
(PPExtractor) d dbar (MEddbar2Y1Y1 d,dbar->Y1,Y1) 
                                               0            0                0
(PPExtractor) d dbar (MEddbar2Y12XmXm d,dbar->Xm,Xm) 
                                             810          810      14.9(5)e-06
(PPExtractor) d dbar (MEddbar2Y12ttbar d,dbar->t,tbar) 
                                             234          234       4.3(3)e-06
(PPExtractor) d dbar (MEddbar2Y12bbbar d,dbar->b,bbar) 
                                             252          252       4.6(3)e-06
(PPExtractor) d dbar (MEddbar2Y12ssbar d,dbar->s,sbar) 
                                             246          246       4.5(3)e-06
(PPExtractor) d dbar (MEddbar2Y12ccbar d,dbar->c,cbar) 
                                             247          247       4.6(3)e-06
(PPExtractor) d dbar (MEddbar2Y12ddbar d,dbar->d,dbar) 
                                             271          271       5.0(3)e-06
(PPExtractor) d dbar (MEddbar2Y12uubar d,dbar->u,ubar) 
                                             246          246       4.5(3)e-06
(PPExtractor) d g (MEdg2Y1d d,g->Y1,d) 
                                             137          137       2.5(2)e-06
(PPExtractor) u ubar (MEuubar2Y1g u,ubar->Y1,g) 
                                            4468         4468        82(1)e-06
(PPExtractor) u ubar (MEuubar2Y1gamma u,ubar->Y1,gamma) 
                                              64           64       1.2(1)e-06
(PPExtractor) u ubar (MEuubar2Y1Z0 u,ubar->Y1,Z0) 
                                              21           21      0.39(8)e-06
(PPExtractor) u ubar (MEuubar2Y1Y1 u,ubar->Y1,Y1) 
                                               0            0                0
(PPExtractor) u ubar (MEuubar2Y12XmXm u,ubar->Xm,Xm) 
                                            2130         2130      39.3(8)e-06
(PPExtractor) u ubar (MEuubar2Y12ttbar u,ubar->t,tbar) 
                                             549          549      10.1(4)e-06
(PPExtractor) u ubar (MEuubar2Y12bbbar u,ubar->b,bbar) 
                                             599          599      11.1(4)e-06
(PPExtractor) u ubar (MEuubar2Y12ssbar u,ubar->s,sbar) 
                                             649          649      12.0(5)e-06
(PPExtractor) u ubar (MEuubar2Y12ccbar u,ubar->c,cbar) 
                                             607          607      11.2(5)e-06
(PPExtractor) u ubar (MEuubar2Y12ddbar u,ubar->d,dbar) 
                                             634          634      11.7(5)e-06
(PPExtractor) u ubar (MEuubar2Y12uubar u,ubar->u,ubar) 
                                             642          642      11.8(5)e-06
(PPExtractor) u dbar (MEudbar2Y1W+ u,dbar->Y1,W+) 
                                              72           72       1.3(2)e-06
(PPExtractor) u g (MEug2Y1u u,g->Y1,u) 
                                             410          410       7.6(4)e-06
(PPExtractor) s cbar (MEscbar2Y1W- s,cbar->Y1,W-) 
                                               0            0                0
(PPExtractor) s sbar (MEssbar2Y1g s,sbar->Y1,g) 
                                              21           21      0.39(8)e-06
(PPExtractor) s sbar (MEssbar2Y1gamma s,sbar->Y1,gamma) 
                                               0            0                0
(PPExtractor) s sbar (MEssbar2Y1Z0 s,sbar->Y1,Z0) 
                                               0            0                0
(PPExtractor) s sbar (MEssbar2Y1Y1 s,sbar->Y1,Y1) 
                                               0            0                0
(PPExtractor) s sbar (MEssbar2Y12XmXm s,sbar->Xm,Xm) 
                                              13           13      0.24(7)e-06
(PPExtractor) s sbar (MEssbar2Y12ttbar s,sbar->t,tbar) 
                                               8            8      0.15(5)e-06
(PPExtractor) s sbar (MEssbar2Y12bbbar s,sbar->b,bbar) 
                                              15           15      0.28(7)e-06
(PPExtractor) s sbar (MEssbar2Y12ssbar s,sbar->s,sbar) 
                                               8            8      0.15(5)e-06
(PPExtractor) s sbar (MEssbar2Y12ccbar s,sbar->c,cbar) 
                                               7            7      0.13(5)e-06
(PPExtractor) s sbar (MEssbar2Y12ddbar s,sbar->d,dbar) 
                                               6            6      0.11(5)e-06
(PPExtractor) s sbar (MEssbar2Y12uubar s,sbar->u,ubar) 
                                              11           11      0.20(6)e-06
(PPExtractor) s g (MEsg2Y1s s,g->Y1,s) 
                                               5            5       90(40)e-09
(PPExtractor) c cbar (MEccbar2Y1g c,cbar->Y1,g) 
                                              17           17      0.31(8)e-06
(PPExtractor) c cbar (MEccbar2Y1gamma c,cbar->Y1,gamma) 
                                               0            0                0
(PPExtractor) c cbar (MEccbar2Y1Z0 c,cbar->Y1,Z0) 
                                               0            0                0
(PPExtractor) c cbar (MEccbar2Y1Y1 c,cbar->Y1,Y1) 
                                               0            0                0
(PPExtractor) c cbar (MEccbar2Y12XmXm c,cbar->Xm,Xm) 
                                              17           17      0.31(8)e-06
(PPExtractor) c cbar (MEccbar2Y12ttbar c,cbar->t,tbar) 
                                               2            2       40(30)e-09
(PPExtractor) c cbar (MEccbar2Y12bbbar c,cbar->b,bbar) 
                                              11           11      0.20(6)e-06
(PPExtractor) c cbar (MEccbar2Y12ssbar c,cbar->s,sbar) 
                                               5            5       90(40)e-09
(PPExtractor) c cbar (MEccbar2Y12ccbar c,cbar->c,cbar) 
                                               8            8      0.15(5)e-06
(PPExtractor) c cbar (MEccbar2Y12ddbar c,cbar->d,dbar) 
                                              10           10      0.18(6)e-06
(PPExtractor) c cbar (MEccbar2Y12uubar c,cbar->u,ubar) 
                                               9            9      0.17(6)e-06
(PPExtractor) c sbar (MEcsbar2Y1W+ c,sbar->Y1,W+) 
                                               0            0                0
(PPExtractor) c g (MEcg2Y1c c,g->Y1,c) 
                                               6            6      0.11(5)e-06
(PPExtractor) b bbar (MEbbbar2Y1g b,bbar->Y1,g) 
                                               0            0                0
(PPExtractor) b bbar (MEbbbar2Y1gamma b,bbar->Y1,gamma) 
                                               0            0                0
(PPExtractor) b bbar (MEbbbar2Y1Z0 b,bbar->Y1,Z0) 
                                               0            0                0
(PPExtractor) b bbar (MEbbbar2Y1H b,bbar->Y1,H) 
                                               0            0                0
(PPExtractor) b bbar (MEbbbar2Y1Y1 b,bbar->Y1,Y1) 
                                               0            0                0
(PPExtractor) b bbar (MEbbbar2Y12XmXm b,bbar->Xm,Xm) 
                                               3            3       60(30)e-09
(PPExtractor) b bbar (MEbbbar2Y12ttbar b,bbar->t,tbar) 
                                               0            0                0
(PPExtractor) b bbar (MEbbbar2Y12bbbar b,bbar->b,bbar) 
                                               4            4       70(40)e-09
(PPExtractor) b bbar (MEbbbar2Y12ssbar b,bbar->s,sbar) 
                                               2            2       40(30)e-09
(PPExtractor) b bbar (MEbbbar2Y12ccbar b,bbar->c,cbar) 
                                               2            2       40(30)e-09
(PPExtractor) b bbar (MEbbbar2Y12ddbar b,bbar->d,dbar) 
                                               2            2       40(30)e-09
(PPExtractor) b bbar (MEbbbar2Y12uubar b,bbar->u,ubar) 
                                               3            3       60(30)e-09
(PPExtractor) b g (MEbg2Y1b b,g->Y1,b) 
                                               1            1       20(20)e-09
(PPExtractor) g bbar (MEbbarg2Y1bbar bbar,g->Y1,bbar) 
                                               2            2       40(30)e-09
(PPExtractor) g cbar (MEcbarg2Y1cbar cbar,g->Y1,cbar) 
                                               5            5       90(40)e-09
(PPExtractor) g sbar (MEsbarg2Y1sbar sbar,g->Y1,sbar) 
                                               2            2       40(30)e-09
(PPExtractor) g ubar (MEubarg2Y1ubar ubar,g->Y1,ubar) 
                                               7            7      0.13(5)e-06
(PPExtractor) g dbar (MEdbarg2Y1dbar dbar,g->Y1,dbar) 
                                              11           11      0.20(6)e-06
(PPExtractor) g d (MEdg2Y1d d,g->Y1,d) 
                                             106          106       2.0(2)e-06
(PPExtractor) g u (MEug2Y1u u,g->Y1,u) 
                                             435          435       8.0(4)e-06
(PPExtractor) g s (MEsg2Y1s s,g->Y1,s) 
                                               4            4       70(40)e-09
(PPExtractor) g c (MEcg2Y1c c,g->Y1,c) 
                                               4            4       70(40)e-09
(PPExtractor) g b (MEbg2Y1b b,g->Y1,b) 
                                               4            4       70(40)e-09
==============================================================================
